866 3 56
6994 20 0
6603 44 4
6739 56 32
665 4 51
2134 46 10
6953 55 6
2652 36 30
2498 27 21
761 51 51
6058 1 54
2102 59 7
1338 58 51
3794 2 39
31 23 43
5778 46 22
5520 55 17
6602 55 53
2397 37 20
214 2 3
990 29 5
7492 51 56
4143 6 47
5683 16 49
406 51 12
2454 25 50
3492 2 45
4161 36 33
194 41 10
7847 8 5
5974 18 34
3635 14 17
7824 18 15
567 5 24
4988 39 15
5368 41 41
3843 5 43
7364 46 11
2201 13 53
7236 0 53
6845 42 3
7087 30 17
1872 6 27
732 37 32
7460 41 4
5703 57 45
1240 56 43
7783 41 21
7359 50 34
2364 2 26
1205 19 9
4872 10 39
4473 19 37
4153 27 6
1401 7 47
4817 2 36
471 31 33
46 42 6
7703 57 48
7254 5 43
6544 58 2
3357 46 13
1328 52 24
89 17 51
207 14 58
6670 16 52
271 47 23
1236 9 58
546 44 55
402 46 53
8041 23 43
5732 8 30
561 17 14
2593 2 31
4368 54 45
5154 32 53
2462 31 40
5726 3 49
6344 33 26
3483 44 12
7700 37 27
3816 25 36
4894 26 45
7216 43 47
6743 51 41
4876 49 6
6434 40 29
3694 54 33
4896 58 58
1358 57 42
334 42 12
178 2 29
4246 52 56
5675 48 39
4554 15 31
1092 19 12
1958 25 52
7423 4 38
2340 32 36
3639 18 26
3529 8 0
1861 26 54
4367 12 38
3415 43 26
1598 54 33
3285 38 52
5438 28 10
2326 39 14
7869 24 38
3833 59 48
1895 16 48
1563 38 7
6653 29 11
5675 0 55
5845 10 41
5714 52 19
1967 38 39
1037 8 10
6619 25 34
7225 3 33
4213 58 42
6109 54 20
4900 35 41
4832 55 41
3387 24 51
5120 27 35
2931 22 5
6970 11 14
84 14 31
999 47 26
5160 8 25
7906 9 11
2906 18 46
2719 38 33
2568 37 58
4052 17 25
2263 16 39
2641 38 42
7511 10 56
166 9 43
825 34 43
3190 40 52
633 51 2
7999 50 32
6389 15 9
1647 23 26
7680 6 34
1879 47 4
1665 42 7
5465 53 16
4120 38 42
1843 40 15
4743 53 6
1338 52 48
4650 17 3
1684 24 26
5750 56 25
3397 7 12
1593 52 47
424 25 40
889 41 18
8147 32 50
5530 16 43
4136 54 35
6685 56 45
7552 8 9
2599 47 6
2280 52 5
1044 1 50
6403 10 15
2139 35 49
5461 34 21
3175 49 29
4106 1 15
8062 2 12
5047 59 20
4900 22 59
7110 54 51
5364 46 45
1326 10 55
461 21 22
6890 35 56
6072 46 37
2749 41 39
6453 55 41
5449 54 40
1421 2 54
121 1 48
4944 5 27
1101 59 37
5400 52 58
2346 35 25
87 31 12
4152 48 45
2295 21 40
1201 58 34
229 48 28
1980 37 29
540 9 34
5147 19 25
5820 23 18
4699 42 45
7244 57 8
248 41 56
4201 5 10
2589 10 0
459 55 40
2712 27 9
73 48 19
6100 27 38
5733 44 53
7627 51 35
2288 23 24
3980 8 6
7261 29 11
2199 23 21
2435 50 8
1200 38 28
6805 56 16
7812 40 35
5322 49 19
4736 9 10
207 5 34
16 18 34
122 19 3
2821 22 26
1122 25 17
3446 1 47
3582 55 43
2070 59 15
4058 34 5
7173 54 6
7924 57 11
5362 17 21
7928 43 32
3439 20 54
2678 2 12
6103 53 5
42 11 0
954 38 52
6745 40 18
6766 53 12
452 17 1
6476 7 19
4241 31 2
1010 51 15
7172 37 9
588 32 2
7034 14 14
546 32 44
5322 6 16
2108 36 9
3832 13 19
2510 1 26
6349 2 50
7279 36 41
8122 5 10
1808 29 42
8166 7 48
6204 30 21
6184 36 19
3972 1 55
6742 29 8
6033 51 1
7207 24 4
1809 0 40
1470 34 37
676 26 7
5530 13 14
7883 13 36
496 50 13
6499 34 14
8082 36 35
5699 49 19
5824 21 35
4508 34 27
2761 21 2
7754 25 28
3693 56 33
5804 23 39
6440 3 29
2733 2 55
4983 48 32
639 51 13
402 48 26
2429 40 53
5809 21 14
2279 32 31
1839 49 27
4465 21 50
8168 14 45
2749 27 47
372 39 36
7780 26 19
6430 24 59
3528 49 40
885 42 53
8163 45 25
1463 1 7
2698 50 20
3369 18 34
3970 15 2
2810 59 41
7970 8 59
573 30 15
2829 10 4
2861 36 39
3430 23 24
4100 34 17
371 5 7
6239 26 25
3570 32 32
3288 26 24
2185 48 32
900 22 54
8027 55 56
1419 0 32
3270 58 48
7667 6 14
64 29 19
1312 13 45
3193 23 18
266 27 36
1094 12 17
5266 48 39
2828 31 26
5500 18 18
5977 37 8
4229 20 15
1719 12 44
1147 4 49
5880 22 4
3506 4 31
5027 2 35
2028 32 23
3275 48 54
3405 0 5
5279 45 42
4135 2 54
4074 42 58
5467 33 3
6360 1 17
2133 40 13
4264 55 7
6748 19 39
2291 22 19
7114 43 19
6251 22 57
2973 9 59
4947 12 33
4045 43 6
1580 3 0
745 28 32
1806 17 19
5857 41 38
1780 20 52
595 54 35
7803 17 57
4804 22 58
4019 13 2
7169 3 45
7207 47 49
1823 41 17
2715 39 26
6718 53 7
7668 29 28
648 25 14
5447 40 32
2768 44 54
4939 47 8
7841 16 3
559 52 50
5836 19 23
1229 11 3
7388 21 48
6483 54 9
807 26 34
5666 18 6
2734 6 50
3176 45 30
3748 35 46
303 2 30
2614 18 42
3233 43 53
3968 43 6
2484 43 0
562 2 19
6988 28 37
4991 26 35
7565 11 21
2347 55 56
4698 43 50
5440 13 0
6398 58 43
2095 47 19
7442 15 54
5530 53 48
5201 6 17
3710 17 35
3826 10 38
2295 26 34
6959 28 9
1993 52 14
1425 7 12
6484 58 59
8175 4 7
4789 3 0
5326 20 58
7259 7 7
5130 37 18
2117 20 44
1967 51 4
4984 12 56
5590 25 55
7018 21 54
5046 29 58
2157 30 53
7105 20 14
2304 27 21
935 2 50
2373 7 2
773 54 53
833 42 57
7994 36 22
4077 50 35
7563 48 4
1318 1 35
7255 59 55
6001 3 15
1266 6 9
5068 20 16
3318 9 2
2975 3 36
6032 45 12
5722 22 54
338 46 43
6246 8 44
3661 15 43
6101 29 38
4440 3 37
3809 20 57
6325 30 6
5763 34 1
7107 34 46
7755 41 9
6533 23 47
296 1 55
7585 7 2
2736 0 31
4439 8 27
5436 17 39
8101 34 9
5015 45 43
5205 32 10
279 31 51
2508 16 14
3071 53 7
3286 58 14
2217 46 14
5864 5 22
7303 1 31
3410 46 57
5696 30 34
751 15 6
2801 38 29
1184 11 46
4430 22 31
2402 29 29
6952 30 15
7799 2 13
1189 2 6
7317 32 45
7930 12 15
601 36 22
627 1 0
7573 18 3
3395 32 26
4774 54 55
2911 31 17
542 22 19
2107 27 13
4850 48 46
487 7 50
2226 0 26
7080 51 20
7136 4 30
4904 3 2
3454 33 57
6073 32 28
6786 39 42
3265 58 1
2815 16 50
653 19 57
2475 29 49
842 1 32
6746 26 29
4988 54 32
8190 40 58
2371 13 22
2675 11 1
517 12 52
5279 27 8
7893 20 20
8098 4 49
6495 6 43
3711 20 9
7320 12 55
4333 58 35
7715 42 48
3993 37 51
1903 15 55
3551 54 23
5595 15 35
331 33 31
6369 32 37
6212 55 57
6997 48 1
5436 13 0
4983 28 34
3519 5 11
7830 36 26
4797 59 20
5428 31 35
2184 6 0
5731 39 24
529 47 20
1514 56 8
5484 0 13
4244 31 33
166 42 38
4117 36 15
232 26 14
1980 38 37
872 18 44
5004 30 15
4489 19 55
3037 49 43
7969 21 44
7234 53 7
355 51 50
7709 9 18
6624 45 44
651 33 15
3576 49 33
7540 58 3
2528 31 14
2943 24 56
7590 9 17
5522 7 3
1722 38 54
7900 39 55
7310 48 32
4751 11 58
5650 3 39
3999 32 37
5531 8 0
2581 31 24
4857 37 25
1459 28 32
4822 18 2
6920 58 42
3680 48 30
3524 15 33
242 57 28
2898 5 0
111 8 0
4564 17 31
2908 23 9
3114 38 29
4222 56 47
6589 0 37
1539 52 17
3889 17 33
6098 39 22
3550 41 27
3787 5 27
1143 37 45
6755 25 8
3636 31 46
5501 10 42
5880 43 34
4481 58 27
422 35 44
6647 45 15
4230 15 49
5361 46 54
7381 18 31
4678 13 48
2110 9 12
1136 26 22
6578 38 57
780 19 55
3807 17 22
2799 41 59
6191 35 14
496 40 1
2210 21 19
7705 39 24
3505 13 25
917 17 51
4163 3 21
3448 24 32
311 3 41
6833 19 22
4536 50 49
5163 10 30
4308 24 43
3115 53 23
147 10 28
7232 40 46
5295 23 49
216 56 5
4668 23 9
2689 5 20
928 45 10
3613 40 20
7915 36 36
4831 43 29
7230 6 39
838 46 19
3176 9 35
4438 45 31
5403 53 54
1688 35 59
4284 39 37
2998 24 17
6518 40 54
670 31 29
1351 53 36
3875 35 14
966 56 16
4981 6 1
2984 21 47
3479 38 22
5106 14 53
4211 53 17
5957 51 49
6459 26 20
640 21 5
5032 56 33
2291 43 29
5903 4 27
7892 57 48
4735 36 18
7313 6 25
170 14 18
3304 39 1
53 50 19
3442 30 41
4315 39 29
3512 2 12
4209 33 17
2652 5 6
4245 25 34
2483 6 40
1652 33 46
4750 17 17
1912 42 59
1999 28 30
6364 20 1
2498 36 3
7750 22 28
2527 34 33
6197 27 58
5855 39 57
6608 7 30
4474 46 39
5412 18 21
7687 17 50
3749 50 10
6822 44 46
2813 50 0
5817 58 35
7343 19 54
3933 59 25
2902 27 33
4420 25 11
3599 41 29
493 57 38
6735 34 20
2065 13 4
6379 46 47
7504 48 45
8091 23 56
4193 40 55
6487 3 14
240 39 40
6587 3 13
2864 40 10
7454 59 37
2147 28 50
5823 27 28
1658 27 16
371 2 31
8160 24 12
6303 19 7
1410 31 46
6146 54 41
1347 38 13
2894 0 12
6343 35 32
2133 7 52
1269 25 19
1378 21 22
1609 5 46
5897 36 57
760 22 28
7003 40 14
3648 4 52
7574 38 44
938 41 12
2191 34 19
1327 47 36
5850 9 49
7468 3 54
2182 52 31
4671 57 45
6983 32 26
7513 56 30
933 26 0
2890 1 41
7338 8 7
3717 59 46
1877 17 56
2191 42 51
4625 52 43
7292 52 32
3410 11 4
7316 45 53
3974 2 11
4470 4 4
6955 10 4
5370 35 3
984 29 21
3368 12 3
5939 41 47
6403 34 39
5519 12 43
2100 8 20
7985 34 22
6172 52 27
5793 51 37
845 49 5
849 33 34
3462 6 38
7961 21 11
144 20 45
1068 44 49
1331 4 57
255 9 23
6965 25 15
7968 38 6
2410 56 55
2199 25 29
1021 59 27
1067 36 48
6962 0 1
1424 48 37
4245 27 41
6359 18 42
3546 32 59
278 4 38
3508 14 34
2224 21 51
5601 2 50
624 5 18
1424 28 10
6213 28 59
4126 9 26
5455 40 37
1801 43 1
7529 53 57
3855 9 4
8009 13 25
4456 46 20
4850 30 25
768 11 45
546 44 5
5253 55 7
8028 38 47
933 4 22
7318 29 15
2383 24 25
4923 53 30
753 5 9
7277 59 39
986 11 50
5228 33 27
5041 47 14
4672 27 52
2288 28 56
1434 30 17
2390 29 41
471 33 34
6093 54 31
282 27 30
46 17 41
6808 53 7
2207 35 46
6753 23 5
1326 51 33
4110 42 3
6252 56 32
3413 19 57
3604 12 43
3087 15 2
6714 57 12
7059 21 5
4670 5 32
4800 10 48
7285 0 31
4866 39 13
4861 27 1
1462 56 20
7783 0 25
3 28 40
1781 26 29
5913 57 42
1243 28 47
1003 44 50
1675 58 50
5547 44 21
5860 34 40
5006 48 37
3454 51 37
7299 38 5
439 20 23
7496 13 21
2511 4 49
4074 28 33
2556 39 31
7475 14 16
6556 3 42
6053 53 22
1186 3 13
3751 31 44
453 30 56
6196 51 9
3465 54 6
5122 44 34
7776 17 5
2327 40 20
1835 16 23
2969 33 8
7191 19 11
5901 43 34
7293 4 57
4957 48 48
4806 46 42
8084 32 18
7602 52 35
5036 28 15
5932 11 24
7959 37 57
7931 24 9
1110 9 52
2989 38 56
5814 55 36
698 14 22
6536 46 55
2826 45 39
318 49 59
6485 5 11
3309 44 48
5035 23 4
4656 13 14
5924 30 44
1100 44 40
4572 46 54
3423 22 32
2774 17 9
2209 39 58
4057 16 55
1960 18 39
7080 1 54
2032 1 0
910 45 30
2815 17 15
4511 25 53
2613 48 16
5205 58 25
3507 48 4
2553 29 20
85 21 30
4060 45 31
6027 13 32
7095 56 9
2061 7 26
4932 6 44
22 43 32
2058 0 31
5675 19 11
2999 37 40
515 42 53
1534 26 38
2897 57 51
1070 28 39
1975 22 46
6714 30 44
3474 24 27
3870 26 28
2485 1 39
1528 24 8
5056 16 50
6837 22 9
5759 7 6
3855 17 27
2034 29 49
3113 7 11
3409 21 28
5537 15 54
6509 25 48
1640 45 12
1677 46 20
6703 31 42
4396 55 42
783 10 59
2958 56 20
4791 29 19
3022 47 40
5866 32 56
7189 45 13
4473 29 58
717 22 36
4630 58 8
1360 42 3
1998 33 13
7614 43 1
3798 34 31
5458 29 18
7874 43 50
6726 52 27
4499 49 48
2722 51 11
6450 5 1
6138 1 43
7545 40 9
6334 10 44
4540 52 11
5275 2 40
3757 45 15
5523 23 8
698 7 57
7306 41 40
2449 51 45
1022 10 47
7422 31 19
6047 58 21
8047 18 13
1830 17 8
6802 26 53
4254 25 8
1374 51 7
2635 5 48
564 23 40
7981 33 50
1672 27 13
19 30 3
2444 18 21
4554 8 30
3614 31 56
7499 17 13
6551 3 4
5271 46 10
6379 10 25
8135 20 58
293 8 26
6783 16 48
1170 36 58
4380 10 7
5302 52 38
7695 19 47
696 55 50
1389 30 36
695 53 39
1064 49 51
3518 26 59
7288 17 7
2037 12 36
4003 20 46
6826 50 39
924 17 50
6935 58 45
1657 43 15
4110 30 9
6665 34 50
920 28 16
4931 41 34
2335 50 38
3767 49 50
5589 56 40
3224 24 58
4171 48 48
6788 53 31
8156 19 53
6461 32 19
1647 28 39
2199 24 20
6709 11 10
8155 34 52
2725 43 40
3914 16 4
3032 47 44
776 55 38
6727 19 49
5196 36 22
5439 51 50
2782 23 6
4515 20 9
4481 48 43
6685 5 19
1569 55 35
6442 35 22
3662 3 17
3080 2 29
614 46 5
2928 49 49
2750 24 12
5013 27 24
3858 24 12
3054 22 10
8189 51 5
6104 25 33
970 36 36
7767 24 39
1884 2 17
6166 54 59
5875 29 23
3211 10 42
4883 52 6
2664 18 20
7470 3 4
6831 23 21
3780 57 57
7285 41 22
7688 53 16
1993 55 11
3832 54 32
7795 57 42
2013 17 26
7352 41 45
5920 15 48
7480 46 4
2090 51 53
1603 24 34
909 36 20
622 57 15
3669 18 10
4609 53 59
263 11 16
2681 35 57
6726 11 4
4203 52 51
1215 46 42
6924 45 6
4523 59 34
4087 21 31
3590 46 41
716 43 35
6868 22 46
2352 19 13
6218 54 16
1358 17 0
2797 36 46
6123 48 32
2237 27 23
7019 26 36
6079 33 22
3248 41 5
6323 49 19
933 14 30
2622 20 24
927 30 33
3327 32 1
3722 7 50
3714 41 9
4213 40 28
5841 11 53
4075 24 34
3524 55 24
4451 13 30
1345 35 50
934 14 12
7419 54 44
5633 20 44
2499 2 17
2540 7 57
1652 48 9
3425 35 25
384 27 20
7588 30 25
2814 55 1
472 45 15
1920 9 1
1765 26 13
6129 25 15
866 33 22
1187 2 2
4980 23 29
7301 19 56
6282 31 18
2855 21 14
7836 53 59
5768 38 0
8169 59 18
2379 56 43
302 2 17
6153 5 11
1195 10 34
5889 39 46
7373 21 17
1908 29 31
7222 29 24
7865 45 2
3066 55 53
6648 10 41
4728 40 43
8037 25 41
1844 5 51
5958 14 30
4380 11 52
4698 27 13
1533 57 42
3549 19 20
4476 41 7
6077 21 17
6291 45 49
5982 18 7
6339 2 4
4150 5 10
6717 1 21
3937 59 41
6858 28 38
6932 22 57
1736 18 38
7631 51 0
2420 6 37
2790 57 56
6701 28 50
7157 59 55
1855 44 49
6360 29 40
6197 19 9
396 43 31
5013 28 49
6732 19 32
4008 20 39
1569 2 28
7453 51 56
7120 36 47
6527 39 31
1864 55 0
6021 53 11
4146 21 47
7981 46 15
5618 34 26
3134 22 46
6821 40 40
6277 53 23
7842 49 59
7473 41 38
3697 13 26
449 26 19
4589 48 40
6664 41 18
219 23 45
1077 22 7
3468 59 39
1988 5 25
3340 59 6
6487 40 47
5094 53 53
5520 59 19
5771 8 8
6243 12 49
3757 23 5
5046 0 27
5926 16 18
7965 5 15
2234 17 6
4045 28 47
3540 10 32
2585 18 31
7201 45 39
5149 44 43
4410 2 58
2411 56 51
2286 50 7
2665 32 4
1632 22 21
7031 27 50
1758 4 0
5894 41 19
3506 22 56
7373 19 41
7777 50 35
4935 25 31
8118 20 22
4410 25 46
3990 53 0
2008 20 20
4950 34 24
1526 13 5
5449 23 28
6106 4 39
1547 29 21
3722 53 47
1293 59 59
187 5 24
177 24 9
3498 56 30
6002 10 56
3038 24 1
5383 50 24
3855 20 21
3603 15 50
844 53 35
6183 46 27
5522 2 32
1526 55 48
4020 41 44
3650 55 54
2174 25 11
5488 53 1
712 48 13
3413 7 28
4984 48 13
2167 15 59
3082 26 1
3947 0 49
559 44 22
3120 50 10
194 37 35
1501 25 20
4298 37 9
6499 3 8
1459 11 56
1092 54 4
6692 57 30
2061 32 30
3762 55 15
7101 3 57
1695 50 34
6966 47 59
3723 38 29
4012 49 24
3244 21 35
2265 5 21
7257 41 18
7359 19 42
4097 37 38
1492 10 33
3194 1 23
3184 20 3
6952 59 41
7017 39 22
6793 19 35
3072 4 41
6213 45 14
2916 56 33
5318 30 3
5788 18 13
7446 56 15
2293 1 27
24 57 26
4937 14 57
7148 55 16
8115 11 13
740 40 50
8099 20 47
7676 43 9
3235 43 27
1877 17 16
5296 59 9
4075 43 58
1937 9 12
2894 41 7
1998 56 10
1515 45 42
510 48 55
6341 16 38
6722 48 13
3145 25 23
6997 9 22
5078 20 5
4340 49 6
3608 7 47
1483 41 36
1037 21 21
292 51 9
2163 0 25
3777 18 13
2730 55 30
6469 41 39
903 35 59
2441 28 40
7827 32 47
7827 36 21
2363 41 34
368 37 17
1749 20 17
5990 33 35
8136 0 22
1870 57 3
682 1 39
453 10 59
3122 17 31
3389 12 59
3254 35 41
4232 19 10
6833 12 23
1014 23 48
1689 39 48
3812 17 38
6187 43 39
5702 53 49
6697 51 6
4589 20 11
860 3 46
4741 19 6
140 53 10
5603 43 25
331 53 56
3440 33 14
5014 8 49
5957 15 42
518 28 25
4716 57 38
1803 26 41
2334 27 0
6676 31 53
194 50 29
5264 6 22
5444 2 55
2606 44 55
5624 57 10
6758 51 31
940 51 28
7942 55 54
6443 37 14
675 25 45
5665 15 36
6042 23 34
3496 36 36
1839 46 12
7258 46 1
881 21 44
5788 21 35
1992 59 22
6739 10 59
193 21 16
7070 26 32
206 0 47
4508 48 23
7032 31 2
4600 10 40
3169 59 1
3257 11 22
1389 59 13
7559 26 15
7719 7 37
351 34 55
2035 28 56
1651 57 36
4642 53 8
5424 54 18
1429 55 9
7606 41 20
321 54 11
3898 21 38
206 48 45
6303 24 11
3278 31 40
5366 18 29
7871 21 14
4439 25 0
2329 10 56
2422 49 29
2314 42 23
3997 48 44
6019 2 25
381 45 49
2344 16 12
3924 42 23
1437 45 44
1916 48 9
1768 9 12
4164 39 53
4169 21 35
3172 15 23
541 46 18
3994 47 55
5691 8 3
7667 0 46
3382 14 23
5670 34 12
3572 2 13
6708 19 53
6301 4 14
2672 5 21
7911 42 8
5841 44 47
2765 27 55
1960 22 48
602 33 54
6562 35 28
7894 31 30
6927 39 41
6084 40 38
7679 16 35
7516 8 17
3424 9 53
3976 58 12
3323 51 26
5391 21 59
3425 7 35
7533 5 58
3100 17 38
2481 13 18
1655 16 35
3794 41 43
1247 5 44
6200 17 43
7960 17 26
6003 4 39
3710 38 47
6753 47 52
2320 19 1
5310 33 7
5640 24 23
5983 43 56
6058 18 54
3515 39 3
1118 3 12
828 54 9
3247 37 47
6746 54 34
2835 10 46
6632 56 19
7839 9 35
5943 48 18
267 3 29
2429 2 0
21 28 55
4557 28 42
5046 51 19
4913 2 13
3500 57 16
3906 45 12
421 41 13
2892 52 54
6923 59 49
5568 53 43
5028 50 11
5071 51 31
3509 2 22
4052 59 24
5262 23 13
1266 33 59
5566 54 32
7420 51 24
4618 58 23
3219 34 8
6738 2 58
8101 17 42
8136 23 44
1898 39 35
4327 9 59
1872 47 24
1167 38 19
1859 34 10
1699 24 8
955 3 34
2055 17 28
5022 50 45
6220 46 0
2504 4 40
6979 39 41
6762 20 29
5759 59 7
4390 3 41
5548 30 5
7964 13 0
822 13 9
5534 55 59
2595 19 37
3708 19 33
4732 54 13
2737 21 25
7182 4 16
7249 14 11
2166 18 42
4743 30 55
1815 16 0
120 22 55
7759 5 14
100 49 33
3618 5 20
6255 3 41
1692 29 37
7480 3 43
904 9 1
46 13 31
5861 8 39
4022 21 53
7741 16 58
6856 49 40
3869 55 37
5761 58 32
2910 34 2
1075 18 57
4646 14 58
2787 44 11
3462 10 20
7493 28 33
4030 41 49
3861 9 30
2501 3 17
4682 16 15
4951 11 41
2297 34 0
3970 41 6
3944 48 43
6964 27 53
6652 36 13
3129 39 54
4154 32 4
1637 5 7
7386 59 23
3082 26 26
6799 55 53
1443 13 34
4302 30 22
7229 58 41
7894 38 10
2127 43 49
5861 29 13
1377 46 18
736 21 9
1508 3 36
6602 26 31
711 42 37
4865 4 7
5468 9 57
5981 51 27
5707 54 10
484 43 39
2365 29 26
5659 21 39
6857 29 42
2717 4 8
3728 23 50
5669 17 46
4292 25 47
6561 6 38
2744 50 24
4162 22 0
6778 8 29
4036 55 50
3323 0 20
7721 33 16
7645 30 39
4540 11 48
2706 44 13
1182 21 12
7860 26 54
293 32 16
725 10 16
2342 14 4
5880 57 4
4656 14 30
5272 40 0
248 40 3
2640 26 47
1534 0 1
2910 5 27
4284 34 51
6140 3 2
2653 1 16
7673 41 6
3481 42 20
987 58 0
3919 46 32
1563 31 59
6402 13 51
423 59 56
2754 39 30
1174 27 33
2460 24 26
2456 25 8
4486 23 50
8079 42 40
4495 2 27
6468 25 50
319 27 55
3614 23 54
7831 45 25
5069 51 52
4247 51 9
7705 8 34
4941 22 49
611 5 32
8180 33 34
3319 33 51
5053 32 10
6724 14 33
3050 1 11
6507 3 54
6851 38 38
6736 31 38
5643 25 0
7052 8 58
3760 32 31
7878 15 4
4585 48 36
284 16 50
3589 30 44
872 9 39
1499 41 9
7929 13 40
6235 12 57
903 53 6
13 5 30
8060 52 38
6936 21 26
5152 1 35
6323 7 5
1895 23 7
5130 26 48
3891 7 53
5883 26 58
7857 38 51
2231 55 56
5377 36 40
4231 20 54
3846 41 55
2753 36 54
4002 7 10
5909 25 28
7133 44 36
6219 35 54
617 24 32
5572 19 20
268 37 56
777 32 16
3491 46 49
502 27 17
3593 14 24
5443 59 49
7551 33 25
1463 52 53
1606 9 17
690 9 37
6922 5 6
3786 34 30
6411 57 9
3564 8 36
1570 5 42
2322 12 42
2760 47 15
6773 59 7
3862 49 16
1884 11 17
3069 54 22
4603 32 49
2525 11 38
682 48 38
1827 34 43
1769 44 47
6419 36 35
6526 54 26
117 4 15
4193 24 26
7942 13 20
3441 8 45
7850 34 56
84 8 36
5223 11 2
2282 57 39
4898 32 15
4237 7 9
1763 56 6
7274 54 22
5076 0 36
2093 29 36
2110 39 10
3346 28 11
1175 55 14
5357 57 11
1832 47 36
1552 4 43
3097 47 31
2139 45 25
562 10 18
1434 39 47
1166 53 27
2285 3 55
5472 34 42
4362 8 39
726 12 19
982 40 23
3465 2 11
100 29 48
3274 3 50
4544 21 29
7351 8 22
3162 57 18
253 57 44
3847 3 52
8035 21 5
1330 15 37
4353 44 31
2484 45 53
2997 3 56
2775 31 18
3913 46 18
327 21 7
3557 42 4
6586 46 59
6578 29 21
5367 15 36
4505 32 13
7088 45 50
7065 46 45
4998 29 16
2320 42 2
198 18 23
917 3 6
1757 33 52
7080 48 13
1229 59 28
1570 40 52
3375 1 29
6745 6 7
6762 8 37
7970 20 11
1336 50 29
6408 19 25
7054 44 50
7122 17 38
6455 2 30
6383 16 10
3067 43 11
7185 52 10
5348 46 18
333 56 31
4245 1 21
1026 29 33
2427 55 17
6842 5 34
4464 28 29
662 3 45
8133 30 21
1196 19 5
3302 16 44
3065 41 32
2804 18 33
2717 9 2
3722 24 49
7576 30 54
4974 7 14
5339 13 17
2049 22 40
6670 43 59
1371 5 7
1107 46 49
5656 50 59
8161 16 8
6840 6 25
553 14 55
4616 57 54
906 52 0
4000 33 22
580 27 5
6023 27 11
1103 2 49
2536 10 40
6375 52 48
5456 28 54
2205 53 1
3464 5 58
5507 24 42
803 0 16
5677 16 43
4943 23 2
1902 30 5
7811 34 7
899 22 59
267 10 27
1446 31 13
3819 31 10
4169 26 34
7835 21 34
483 39 42
5167 54 58
6873 12 28
6710 19 55
2142 59 9
1329 26 19
2921 40 50
7470 55 13
3208 0 40
7427 48 53
7741 43 24
4732 14 10
4422 48 22
7914 18 34
1361 56 33
7522 26 51
7277 23 32
2831 25 19
5841 37 20
5429 16 0
2398 30 43
2427 18 58
2265 4 38
3816 10 56
6698 4 53
3619 14 11
3038 36 34
6402 39 59
1146 56 28
7822 45 45
1498 28 15
7233 27 25
5619 36 21
3529 8 31
7674 58 27
3811 21 34
1462 36 10
3548 22 49
1155 20 38
5683 38 23
8176 48 51
8183 34 18
2244 17 55
2973 39 55
1901 49 54
388 52 15
5958 58 51
1312 38 6
5666 9 26
284 8 57
6979 45 37
3575 36 11
689 53 29
588 30 0
7088 31 49
2310 0 33
6257 2 23
5585 7 53
6695 1 54
2541 25 2
946 12 47
3408 51 16
775 49 9
6860 33 39
616 5 11
6101 31 11
2550 13 13
7809 38 20
850 9 13
7404 58 30
387 37 43
4358 53 34
2926 12 15
6527 1 41
1751 41 38
6882 3 10
5925 49 23
4838 59 1
4935 1 2
3688 58 0
1383 49 29
4998 19 22
1724 6 27
444 1 20
1745 28 53
4523 6 56
2897 55 38
3124 50 37
2597 57 38
8011 9 36
5524 52 17
4273 10 37
7668 3 35
99 3 28
4811 36 57
6036 39 3
1685 1 59
2499 45 41
8096 23 30
2942 54 39
2635 34 24
7560 36 34
5693 52 37
8152 35 32
5081 38 0
6422 34 40
2673 19 41
7952 42 18
2521 42 33
7699 13 28
2599 20 54
4987 36 22
3477 30 14
7987 58 41
2575 47 19
5372 33 54
4516 23 5
2905 3 40
3663 17 14
1197 0 27
3517 23 39
7955 10 16
2402 24 38
2716 15 28
806 30 16
1481 38 41
2587 26 4
5809 47 0
5453 27 9
1423 32 9
4855 57 25
1998 16 27
414 58 51
5796 55 58
1721 25 29
1461 14 7
3246 50 26
1559 23 13
4351 36 32
5952 3 56
5869 50 53
6702 17 10
5246 51 8
4977 56 55
5692 37 20
1773 18 27
6784 48 9
666 15 32
2708 26 0
188 46 3
2497 16 54
4958 2 3
7336 16 46
3841 14 42
5380 18 19
4569 43 29
2888 7 18
2925 58 25
2297 54 52
6457 22 30
444 47 38
5498 58 41
7233 10 49
6064 31 55
7786 40 5
5930 9 48
1955 57 48
7301 46 38
7143 7 32
5831 28 54
1125 44 34
7088 55 24
5845 0 34
2642 52 58
2458 19 38
2791 5 39
5416 20 28
732 46 14
5790 29 21
6914 4 41
4292 9 17
422 45 12
262 2 5
2957 53 49
4155 47 8
1045 38 5
6388 10 18
6688 30 56
4870 20 25
3231 42 29
36 43 30
3921 17 8
4002 16 2
7511 41 55
4128 12 34
1641 13 13
5978 53 15
2712 1 38
7336 23 58
2417 50 33
1978 6 16
7145 31 25
429 1 41
4059 36 22
4295 45 26
3593 10 39
4746 24 24
4978 5 17
5020 33 32
2470 27 22
4243 49 20
6439 26 52
1289 11 45
5438 59 14
5461 42 59
5511 51 1
6635 6 25
7027 36 22
5185 36 56
5977 42 23
4444 6 4
620 45 31
6620 50 42
1870 29 41
2072 22 15
3163 41 7
6784 40 5
2529 48 33
1304 21 9
2252 26 43
7791 46 49
3515 35 35
4762 59 17
3769 9 46
4594 33 0
3342 56 42
3605 12 22
1938 54 2
3319 58 23
4576 50 42
8179 5 28
1989 24 55
636 15 55
5409 40 4
5364 46 38
5960 0 26
4518 21 39
7673 39 33
6067 30 23
4887 30 13
1917 14 18
1601 47 42
4561 47 57
1032 4 29
1076 8 16
6766 5 16
4881 43 30
2204 36 9
1265 32 40
3368 51 10
2573 44 24
6671 5 3
2793 22 50
3895 34 55
5552 43 55
4168 21 52
3085 26 36
5907 10 4
6380 27 28
7824 59 19
6623 44 55
2763 55 1
6427 33 23
1865 8 50
2680 12 25
6044 25 38
1532 54 5
1856 53 7
6497 53 27
5137 34 26
2665 33 11
996 40 58
1733 59 31
1245 1 39
563 57 44
764 41 9
422 18 3
4419 22 48
6767 23 33
538 53 7
5484 42 40
7795 18 13
5950 56 12
2741 49 5
2065 24 55
1281 16 36
4558 54 46
6789 22 1
5689 57 16
7638 59 9
4078 19 43
1630 43 54
3059 5 42
6600 42 23
5925 59 47
3716 0 3
6017 2 49
6167 59 3
6024 44 52
3893 3 51
4910 29 3
3550 27 46
808 31 43
6610 47 25
5817 0 17
7184 17 9
3283 54 12
2728 25 3
1748 50 48
7108 31 51
2964 21 12
2991 47 31
6793 7 2
3936 9 41
5353 26 42
4918 30 51
3912 29 45
6892 10 10
4263 54 52
1715 22 15
6886 42 29
7470 5 16
5098 58 16
2828 34 17
7262 28 44
7940 38 14
387 58 36
7004 14 46
1190 42 40
5355 49 2
7006 48 37
2863 50 42
4668 24 33
5036 53 7
2385 3 35
2533 55 14
4472 30 4
3292 50 19
1722 12 53
1510 27 42
1572 50 30
4873 41 13
6212 49 37
4189 5 30
2740 31 25
7220 40 20
6162 4 42
3478 56 32
6061 34 45
1790 44 4
573 49 46
1103 38 28
2660 54 9
2150 43 7
2400 40 38
2482 4 18
2142 42 15
1769 16 11
173 10 38
6738 48 22
2243 9 11
1885 1 42
337 5 28
2267 39 12
4518 36 44
1284 50 48
3290 24 22
6817 41 38
6965 23 40
5455 41 21
3797 56 30
3565 58 31
1439 19 29
3631 42 0
6139 12 28
3511 12 18
2967 31 43
2477 4 16
5520 41 31
1772 56 13
1217 26 9
4428 7 59
4315 22 11
3540 5 53
4253 53 58
661 24 10
3440 36 41
6539 9 46
3535 21 19
2795 6 16
2864 19 34
5985 55 41
5853 55 55
2804 23 0
7297 52 45
7467 42 10
4598 50 38
1979 33 47
6429 24 9
337 55 15
5541 23 26
1263 1 14
7452 38 9
971 26 32
1835 59 25
7993 31 7
6571 5 49
537 28 22
560 22 46
3969 35 34
4344 56 57
2903 59 58
4073 27 28
3978 58 54
6158 21 46
6675 30 9
6190 41 14
8143 22 34
2689 51 56
1556 20 31
7538 57 27
7115 52 18
6274 1 45
2674 19 35
7313 9 49
2911 17 19
5128 23 53
2178 27 7
4232 36 50
1337 32 3
2020 54 0
3632 14 44
7434 24 45
4496 54 56
3979 19 5
7720 22 14
7328 34 38
1181 52 57
6200 45 33
6563 34 58
6238 38 52
1378 10 58
3078 53 22
7219 13 17
1395 8 28
8148 53 51
1387 49 25
3685 30 10
6802 10 55
5235 49 21
541 23 59
258 57 10
3308 7 55
7775 54 8
8140 37 16
3524 26 1
5031 21 42
1405 54 12
3015 24 23
5902 19 4
3211 13 20
5154 51 9
7172 27 17
315 26 3
5463 26 41
2020 3 7
5897 22 20
8040 7 14
1436 54 38
479 36 49
3540 39 54
472 34 37
845 38 5
7738 30 23
3794 29 50
6791 37 53
302 47 15
2098 31 15
7672 27 1
7442 39 38
6643 47 17
5818 15 43
5223 52 22
8168 39 44
6044 21 13
6990 44 43
6339 14 22
930 56 53
361 52 12
7647 18 51
4113 25 30
1162 19 37
3950 51 30
3264 27 1
7612 27 22
6073 17 6
668 52 12
5486 35 0
3991 24 44
5812 23 2
3235 44 19
7994 23 39
4175 45 30
817 21 49
5658 41 17
6108 6 26
766 7 11
6318 29 46
286 37 2
6726 57 18
312 0 2
4072 26 25
7439 30 2
7445 3 15
4066 22 48
3347 2 47
4086 41 46
4429 31 15
5307 14 44
7081 40 33
1015 1 26
7606 41 52
3439 44 14
658 17 10
2525 39 32
270 11 34
8157 1 7
2279 10 31
4506 57 45
2447 38 17
1912 46 18
6138 48 51
6735 7 35
7877 29 44
2191 59 16
3527 17 27
1610 14 28
5397 57 30
4824 55 19
177 30 57
6375 39 35
7345 13 15
7161 24 23
5068 58 52
321 41 43
5177 49 0
6600 23 6
484 4 3
7642 17 59
613 14 21
2862 21 0
7214 39 6
4889 40 30
7520 16 20
7573 29 54
7572 6 43
7789 54 58
8187 10 2
2855 56 19
4490 53 26
7347 40 39
5148 2 18
4030 31 58
2536 24 7
353 1 36
7863 21 43
4018 34 29
6812 54 40
5258 9 28
4182 31 14
3760 58 54
2175 34 48
6774 0 19
140 57 35
3727 14 36
1472 17 50
6743 3 16
1564 47 10
2804 25 19
1721 15 42
7119 31 41
5477 27 7
4009 41 8
7604 37 57
7400 41 3
2776 21 20
1306 44 23
2587 28 2
6613 45 19
8049 30 35
3191 29 6
7580 22 33
1788 55 6
6228 39 36
7053 59 17
4616 48 38
6780 18 14
1179 13 34
2817 11 19
568 20 49
6807 55 10
718 12 32
859 36 19
5814 52 59
7530 5 50
1543 13 30
5709 49 41
2195 32 54
757 9 57
4201 13 9
6054 37 5
5245 7 17
7249 2 45
7885 56 29
6564 18 34
2494 5 39
6645 22 20
3938 53 52
5152 51 1
518 8 6
6275 58 43
1040 7 42
585 41 37
6698 34 25
1031 10 44
7021 36 49
4708 33 4
872 3 49
4884 20 40
3177 42 40
4512 5 39
7503 26 38
4678 3 19
5087 26 45
6352 9 55
7812 27 24
2818 15 49
5270 24 53
979 24 13
7088 18 47
3220 10 44
3623 37 2
5350 39 6
7457 18 24
1447 23 33
2074 3 52
3642 33 0
4604 59 24
705 23 48
5290 19 58
2493 47 0
6781 3 30
2812 49 1
7554 46 12
3130 29 35
6955 52 30
1476 38 56
7784 22 55
2176 43 10
5920 17 29
5811 22 9
6359 12 12
6877 4 53
3851 54 39
2367 8 1
586 47 45
6320 19 23
6004 43 38
4908 31 21
4010 0 31
2208 19 53
2721 30 5
981 4 9
2338 39 55
6057 26 3
5394 32 51
2423 8 2
787 49 38
5089 9 9
7842 47 1
6145 47 12
2491 48 43
3660 1 47
4274 7 18
3693 37 36
5049 7 8
7104 23 16
3142 54 57
948 3 6
2698 33 46
6119 27 25
640 14 14
811 58 15
5318 44 15
1628 26 52
300 11 59
1920 39 14
4616 9 0
6202 18 3
3392 28 37
198 31 4
7020 47 10
2002 38 8
2509 16 53
2688 4 19
404 28 22
1052 52 1
7054 25 10
2815 55 20
1614 23 40
3103 30 12
5235 10 51
2309 56 22
6178 49 38
4731 6 35
1662 6 55
2020 58 40
4717 57 5
4703 48 52
2928 50 7
2088 22 37
112 41 39
5832 19 27
3674 57 17
7148 20 23
1499 54 21
3411 50 12
6611 47 1
7524 54 49
4160 14 31
8103 15 45
3169 27 27
4568 23 46
6112 33 35
2117 22 47
3464 45 41
2365 48 31
8065 39 10
3042 27 4
6495 7 19
3655 55 34
5816 12 53
1831 16 9
2201 32 42
4912 13 4
6503 9 42
444 19 30
5139 32 2
729 47 29
110 42 29
6209 9 24
4731 22 36
3980 53 44
1597 11 17
1256 3 22
1912 35 32
5066 39 43
5937 7 15
2943 44 54
3608 26 37
3901 11 38
3733 30 52
6273 35 46
7898 40 57
6527 28 52
4277 13 19
4613 39 51
1708 28 58
3628 11 42
5222 24 1
4795 5 4
6002 3 35
6466 28 2
8020 30 34
4673 49 55
1338 23 8
4517 20 39
6464 1 0
4126 57 11
6425 39 27
5278 59 33
6894 57 28
7813 39 56
3823 8 19
4714 33 0
3549 43 23
2241 13 36
5856 33 37
3948 44 34
7652 29 5
4191 7 4
5660 57 53
7600 7 33
8093 10 33
6844 48 6
2188 21 42
6596 54 55
104 7 20
805 11 4
4135 27 25
7124 11 32
6377 19 30
7894 56 29
1759 13 39
4184 57 28
3459 33 41
921 25 36
1088 1 35
2232 6 46
289 37 14
1682 14 17
3499 47 36
4441 13 24
4130 5 29
6389 21 18
7741 44 52
3543 49 17
4227 49 11
7458 2 9
800 19 39
98 53 53
1351 8 32
2028 45 37
1536 43 34
7970 21 56
3596 18 40
6988 57 30
166 4 11
7809 38 5
6146 59 16
7505 25 10
2626 17 10
6078 29 56
1180 57 31
6074 55 52
370 12 3
3911 20 52
1233 38 49
1616 59 27
7294 38 18
2170 47 44
4312 42 53
835 0 22
4371 4 11
2666 35 7
2111 1 19
2254 8 39
6638 37 10
3107 18 9
7311 4 39
3665 6 19
461 19 1
7242 34 53
1460 45 50
1036 19 25
5747 38 18
2806 0 27
7393 7 4
3291 2 22
6501 17 26
6784 59 25
3455 16 44
7332 27 10
8110 59 47
6968 35 6
1789 18 37
1135 12 29
726 38 36
1795 13 31
5957 50 48
4124 7 39
6657 34 56
1485 3 23
5827 17 14
7670 29 42
1488 50 52
5777 37 5
6407 44 35
1823 47 40
3326 12 23
1843 48 30
1038 49 56
1374 34 59
1901 13 8
4080 47 37
754 20 19
5862 29 57
5827 8 41
8042 16 20
7607 46 24
2830 5 13
496 4 2
4060 58 29
4472 0 42
1648 16 30
2558 14 50
797 4 19
5694 52 20
1591 6 28
6667 1 14
2304 11 12
817 51 16
671 28 6
3352 56 6
6495 32 22
1385 38 36
5895 4 33
1226 18 17
1978 14 15
1782 21 9
3965 1 20
2177 38 12
5649 26 40
7563 34 36
1630 17 0
120 22 39
3789 17 35
2114 24 53
923 50 59
66 37 21
7151 30 14
432 43 53
4980 4 11
280 31 37
7188 57 55
2776 54 9
5987 11 27
1234 53 51
2404 52 33
2895 6 2
1184 22 32
7767 58 7
7076 46 11
7975 6 35
5624 2 32
6519 50 18
3853 10 21
3520 56 14
6747 36 6
7320 16 5
7023 8 27
1627 15 17
1503 7 3
4106 10 9
617 51 3
858 18 45
4948 55 55
294 51 52
5392 30 20
4783 43 36
6724 58 45
1983 37 52
7376 32 0
3307 31 10
6440 56 1
7579 54 12
1308 11 59
1808 49 43
2120 33 13
4648 24 48
4097 4 46
1650 19 24
5074 43 48
5062 2 11
1397 30 8
7894 1 2
6498 10 5
1062 14 46
3297 2 20
3566 18 36
999 55 41
2617 17 52
1857 32 28
222 38 22
1817 55 53
7261 6 46
1028 20 56
4449 34 10
1436 31 12
5572 34 23
5256 25 18
7213 54 28
5234 48 0
6694 14 30
6708 59 26
3525 37 24
4724 17 44
3420 54 19
1423 26 50
851 2 16
6354 15 41
5645 0 36
373 38 16
3805 44 30
4619 5 21
4213 10 58
2289 10 15
5346 59 10
6253 58 28
115 1 23
6884 20 38
2981 57 38
7409 54 17
5641 51 53
6091 10 50
2385 56 1
1783 57 3
5315 51 2
1045 56 52
6793 52 54
3556 56 6
4782 41 3
1301 55 57
6538 16 40
2611 8 50
4422 21 38
7303 32 36
7786 51 19
1101 12 16
5053 2 0
4111 6 56
4629 49 29
4060 10 24
2777 40 41
4585 55 49
5912 1 10
2778 0 34
5666 11 18
3538 8 30
2646 5 24
3106 49 31
3610 30 20
7139 15 30
4720 56 2
1993 10 57
5050 14 51
8084 48 51
4686 59 54
172 21 2
3779 59 0
5915 37 41
1946 3 11
4846 6 26
7724 26 15
734 19 17
2872 1 31
2175 37 11
5946 56 2
5589 24 23
2203 23 14
843 47 43
5620 41 46
4780 56 53
2382 32 11
1205 3 23
5834 31 16
5797 42 54
3873 44 50
5727 41 14
6707 25 30
1265 16 17
701 41 58
431 9 46
7596 3 11
2340 5 14
3039 23 37
6551 5 19
4577 58 3
1803 45 37
6594 48 2
6344 6 18
6969 7 51
2223 54 0
5146 19 56
7077 55 53
559 54 16
4848 1 13
5735 3 3
974 54 49
4347 44 37
1673 4 35
1988 49 42
2719 17 29
456 31 48
5772 56 35
3489 35 21
7633 43 22
7619 10 25
7318 40 12
4267 40 56
5173 49 1
3108 1 42
6967 5 51
796 1 22
384 45 18
8071 30 45
2320 15 20
6066 22 30
7504 25 3
244 16 35
7264 37 16
2141 26 18
36 57 15
3171 49 16
310 21 53
6720 20 15
6578 48 30
4730 30 53
6913 30 10
5908 34 26
6063 35 56
859 28 22
477 56 11
7636 16 52
6408 50 5
2565 42 25
7788 4 5
5135 55 27
2224 0 50
6374 8 24
5468 43 59
4680 34 20
7118 44 16
3365 8 24
2409 33 14
4634 50 49
1727 23 53
4200 26 40
1736 14 40
1838 4 40
4750 28 15
1354 33 50
1982 59 34
6670 37 34
2207 58 59
5285 17 50
6242 0 13
3464 41 31
1680 41 45
7805 31 49
3169 37 9
2029 35 34
5243 53 34
5097 20 3
1035 3 1
7659 0 10
2957 39 11
2910 11 44
4461 15 25
1642 44 48
827 54 25
7484 19 53
1719 34 38
7033 15 50
2216 22 53
6061 29 54
6820 18 33
6219 28 36
267 1 43
7084 11 28
3932 2 22
3753 3 41
7902 38 7
1977 39 22
839 43 36
6697 40 58
259 48 16
4152 7 37
5456 2 30
5851 14 42
4951 14 44
5925 32 39
2610 42 9
249 23 48
3939 55 23
6524 20 4
7470 31 52
1542 7 52
8035 19 54
6834 6 1
7772 14 15
3484 43 47
1456 46 22
3405 3 45
8174 27 40
1593 27 0
6109 25 23
3966 39 30
1382 31 41
6816 53 48
2777 49 54
1389 21 37
6404 33 23
1150 55 19
3988 57 46
7564 14 13
2193 28 30
4516 34 9
2303 32 40
1008 8 25
6484 54 6
7298 47 28
1184 27 1
7135 22 48
826 10 37
2580 30 44
2537 43 12
8167 20 46
4629 27 10
8149 15 18
987 44 4
7297 14 43
5989 6 3
6711 30 25
4675 4 27
8057 25 49
2065 50 25
1001 38 45
639 43 12
2361 12 27
4791 59 11
2516 53 18
5115 14 24
2610 29 46
4343 25 43
6110 58 8
7284 7 50
1865 36 28
2562 43 3
3486 52 8
5645 19 7
7333 35 0
7655 35 7
7795 37 28
6698 49 53
5189 27 43
5849 47 42
3023 24 18
4880 46 53
7855 20 45
3715 6 57
1639 3 32
731 2 7
6982 25 37
2527 35 26
232 20 45
8156 5 33
3786 41 49
4509 29 36
2770 20 48
932 12 54
3785 3 49
5653 54 51
3461 45 17
8010 4 44
7260 8 57
7321 48 2
7286 11 35
828 52 4
6892 18 17
4388 30 29
7155 31 24
6140 5 18
808 46 55
7145 56 59
7273 40 0
6382 1 48
2129 48 59
5728 24 43
5677 36 2
1638 28 24
5519 15 48
2575 52 53
1729 20 31
1773 57 27
5232 18 59
4148 37 52
6677 50 40
220 38 56
5672 15 32
1226 9 1
4198 24 16
1990 3 8
255 1 20
2454 46 17
213 22 36
792 59 13
3321 16 3
6893 24 33
4146 16 49
1970 2 58
4755 5 15
3272 47 18
3660 23 11
6729 21 57
3238 39 12
462 55 11
4783 48 19
1946 30 43
5872 52 0
5853 54 54
3527 42 51
4414 46 39
2897 50 2
704 7 23
7802 42 2
4846 52 50
4177 8 38
4280 18 0
5375 54 52
4943 19 39
4210 35 21
7373 5 7
40 54 49
7042 47 57
6258 29 31
6092 31 15
7338 28 15
5125 52 34
6345 51 20
6954 43 40
729 37 15
618 14 20
1701 31 7
7638 49 46
583 31 15
158 8 38
6826 26 6
793 23 50
391 13 33
3300 55 16
7180 16 45
7367 50 0
83 31 31
4610 53 12
5268 57 44
1667 39 44
6845 29 2
403 35 26
3005 6 31
3643 58 26
7259 22 42
1681 1 32
2473 53 55
1484 43 40
5756 12 37
5164 55 9
5800 17 38
6811 28 5
5129 30 4
7100 57 2
3294 32 17
2632 53 18
5732 6 3
6103 50 39
3191 39 51
5773 3 46
5814 4 3
1948 59 24
3162 20 54
1654 12 51
724 30 15
7553 22 9
4932 38 15
1135 49 58
774 40 29
925 9 24
3256 39 28
6419 48 19
2627 46 39
3077 56 51
3220 0 13
2124 14 27
1469 46 5
3728 21 54
2194 28 35
2623 33 36
1988 9 16
6088 49 56
5352 52 42
4907 42 30
3663 22 22
4912 10 36
3096 59 22
3945 4 36
5372 6 4
2375 38 29
727 26 39
6243 34 28
4487 2 12
6813 10 54
6683 1 9
4822 5 11
590 21 11
7113 43 15
949 51 13
7449 18 51
2962 29 9
7129 49 44
1793 56 46
5966 46 48
6340 57 49
6137 39 55
7481 50 8
3648 15 51
6559 24 34
2024 29 52
860 3 14
5053 17 55
4309 50 51
3980 28 29
780 1 27
6566 42 58
1673 27 40
5581 15 55
5853 18 11
7859 35 40
5784 27 36
354 36 45
6005 14 27
2648 30 56
5290 34 57
4229 28 31
4287 17 51
6056 7 6
263 40 17
4243 55 44
867 47 11
1291 1 47
4452 2 53
3952 55 23
5756 9 50
8013 50 18
476 21 28
7011 33 35
6690 33 15
6071 44 2
7179 27 50
2682 39 43
5825 43 38
4535 7 25
2790 19 34
1372 28 16
6847 9 29
4503 32 55
8114 54 28
7149 41 4
1275 4 31
4469 38 10
701 0 46
4167 7 45
1132 21 5
5078 34 25
3850 5 34
1735 56 59
4790 22 53
5086 55 27
6866 30 31
2806 48 10
2388 33 2
1874 4 1
5216 52 22
1785 14 56
7786 44 53
7313 43 41
7376 38 3
6473 52 58
2484 11 21
2588 1 1
1274 53 34
4368 24 30
21 32 22
7407 53 36
3324 31 12
2809 36 47
2175 32 17
1342 22 10
7461 30 21
5422 10 14
7887 44 59
7365 20 15
8023 57 47
2801 49 32
4969 29 56
1993 54 32
3800 1 57
6990 12 19
264 13 49
6873 27 52
5047 42 36
5366 31 57
1514 50 46
6897 23 35
6918 32 56
1170 37 43
5158 37 44
1683 47 48
5410 7 53
2440 40 20
3552 19 2
1828 50 25
1637 36 15
3000 1 30
5131 59 54
3164 53 31
8099 12 1
5727 27 48
5584 2 56
6937 18 28
7018 18 40
5520 2 22
1618 28 50
3333 48 51
5276 35 51
4222 11 44
2166 30 48
2907 34 16
5243 26 10
1247 11 28
5984 9 46
8116 10 40
4818 28 0
5796 53 48
1563 57 16
7230 40 27
7583 2 50
7779 17 24
1311 12 50
1781 4 53
3437 16 55
1639 0 57
6408 6 25
2996 2 18
2597 41 8
2149 12 48
4816 19 42
2314 6 51
370 18 3
4568 31 7
5462 5 15
1877 24 15
7526 8 21
7643 1 15
5561 34 49
6557 15 1
6661 15 12
8039 14 10
5406 20 20
4006 17 52
5085 59 57
6437 36 13
7984 10 22
6354 1 15
7341 2 41
4318 12 48
4515 1 3
7323 33 9
4138 47 30
4462 57 47
1886 15 38
8039 40 14
8177 20 16
515 14 17
4434 24 19
6147 14 23
7803 58 25
6026 53 50
3132 51 37
7682 10 27
7861 20 34
939 20 14
5177 25 26
3525 44 41
3626 10 57
2849 17 3
7753 4 1
422 54 47
5280 46 38
3157 8 48
6252 9 9
3266 48 21
636 33 38
6347 42 14
2176 52 24
3657 22 33
6916 15 29
86 33 15
6873 33 2
6839 10 10
4448 7 12
1585 37 0
6290 14 26
2164 17 8
6106 53 53
6166 18 15
299 46 30
4500 16 55
219 25 28
6973 13 38
7868 49 45
2572 26 23
216 24 29
5978 52 46
6999 26 31
6904 24 49
351 47 27
3285 39 36
7936 46 1
3200 48 14
426 0 55
5868 24 21
6407 40 37
2680 23 21
1034 6 47
3645 42 11
5978 25 58
6757 38 37
6069 38 16
2595 6 4
3173 4 4
4061 40 28
6842 31 0
1424 51 23
6353 57 21
3161 26 55
6204 44 20
7591 22 50
3628 35 20
2728 42 26
3672 56 23
6136 5 55
4500 27 27
7173 27 18
3748 57 8
1226 58 34
6509 18 19
3566 29 33
3872 2 8
7173 58 43
283 43 31
14 31 28
4042 48 55
2389 49 23
5927 13 12
7499 59 10
2558 33 20
5273 27 42
6018 11 44
2670 8 34
6017 32 17
2848 2 49
5416 36 29
4180 29 10
563 25 23
919 36 15
217 14 48
4661 3 15
5459 25 18
6239 48 27
1538 53 51
3219 30 53
1036 34 22
7681 26 43
5751 41 8
7187 0 45
5022 21 51
5766 11 55
4793 34 12
5975 34 0
102 16 54
3841 59 24
823 32 50
3281 25 17
5412 29 50
4953 48 43
1210 30 4
4933 52 7
5012 21 42
7465 8 16
6769 15 24
751 4 15
451 47 47
3094 44 5
4667 25 26
5733 6 6
7212 32 36
1129 49 20
336 46 33
2102 3 41
4474 12 48
798 8 53
2486 27 32
2381 37 9
8166 56 26
1016 58 32
4502 42 56
7262 31 37
6870 28 23
8119 6 18
601 45 23
801 39 31
4370 57 58
3939 47 28
2788 41 24
6330 54 14
3134 12 57
2602 51 28
1475 57 56
4767 29 55
3557 34 32
4616 35 11
503 14 1
8054 25 48
5786 45 21
6558 23 7
7913 25 12
678 31 3
2366 6 0
5123 5 21
2858 15 55
46 47 23
5677 51 29
5854 53 54
2958 15 39
5156 1 54
5271 54 19
7807 44 42
3642 3 40
7839 10 38
3940 12 53
740 38 40
7231 15 31
3208 46 16
802 12 31
2801 52 25
7343 40 19
1178 39 4
3292 42 59
6968 29 9
590 45 13
4099 41 51
5728 52 58
5979 32 44
4716 6 49
7723 11 41
5176 2 13
4988 12 45
7836 4 19
7895 29 48
2096 31 25
1489 19 59
6120 47 51
5282 30 24
4831 30 22
7724 2 34
2733 50 28
3323 50 41
916 46 37
7347 41 6
5879 45 30
452 54 41
8191 46 20
3559 37 50
6147 4 21
373 20 15
5423 1 5
4064 56 48
5665 36 34
5326 35 8
1825 14 45
3943 11 40
7588 14 18
2104 1 55
1662 4 51
2787 30 3
5010 21 5
5316 41 1
500 42 38
6590 13 5
6906 50 12
3544 49 23
6184 29 29
4562 21 31
3962 3 27
1021 7 57
3465 17 11
5834 33 52
3259 29 27
4849 0 40
1567 38 30
7483 54 11
6666 50 32
7307 5 53
4774 7 56
5214 52 55
807 41 13
5170 27 38
5983 7 8
718 24 8
2894 39 38
6144 6 33
6219 48 15
2515 52 20
5328 34 19
8128 28 4
5512 28 37
2489 30 57
4375 17 4
3479 31 20
6391 25 0
3634 41 58
6943 0 39
6118 51 31
5723 35 57
1526 8 26
2742 28 46
4644 1 8
4873 12 26
6689 24 49
6749 35 15
6621 17 48
5596 32 49
2147 55 40
3582 30 8
6483 24 16
7873 7 44
367 35 37
5520 52 41
4738 5 5
6931 38 33
6802 4 42
2303 20 7
7844 7 2
1364 17 24
4576 24 40
1032 50 47
4436 53 22
893 5 6
2971 27 11
5956 47 42
8049 13 38
4692 28 58
2827 32 57
381 1 14
3077 45 30
4249 38 20
6641 14 6
6703 20 3
1118 7 31
4765 51 10
8011 9 23
1093 1 52
5991 0 16
276 1 17
3914 18 3
7005 23 33
1037 8 47
2763 16 59
1319 22 6
1442 31 50
1872 23 51
1219 44 52
1787 4 52
3228 12 45
6905 35 3
1012 20 18
2965 25 27
817 29 43
3652 28 57
6251 58 28
6377 30 43
3888 25 28
3476 13 24
7968 1 36
1361 6 3
3116 59 15
1098 32 33
1949 45 2
4180 58 30
717 1 20
4518 54 50
7209 38 15
1693 6 20
2153 26 13
674 15 20
1169 7 19
2453 17 43
5562 55 29
5068 59 19
2290 1 20
6862 31 6
4272 36 44
3931 2 50
7628 59 8
2205 17 23
2761 31 30
2116 0 39
3236 2 26
6937 58 26
488 24 19
6524 2 42
6846 30 10
5342 5 12
5488 53 4
7060 55 21
3227 16 44
5297 49 44
6176 57 38
7815 34 36
6201 22 0
2052 22 54
8078 28 16
6912 18 22
249 50 7
6625 22 2
2138 17 19
4343 42 0
7499 30 49
786 53 15
5654 26 37
8011 18 51
6525 52 19
5470 37 29
584 26 11
7687 27 33
4410 33 50
1705 24 24
1689 0 54
7598 14 40
1793 56 58
1146 39 17
3989 17 1
784 11 38
5065 19 4
5936 26 23
2265 36 57
5471 57 21
4467 18 13
5429 20 19
7981 29 16
1940 15 47
5741 52 4
2886 40 7
289 49 18
6389 9 45
3237 54 21
1162 29 19
4507 28 29
4389 14 42
1592 31 11
1772 47 27
4748 12 19
660 39 52
3172 44 41
4674 37 43
4663 2 37
7549 8 7
6844 28 27
4237 1 33
7327 53 57
1523 2 44
4354 50 49
3425 34 28
7713 26 4
5899 37 41
3918 24 36
4035 33 44
3530 53 4
6870 51 5
3099 22 59
200 57 53
113 7 35
386 21 9
3906 34 28
2770 13 57
3367 35 13
743 35 47
4252 33 40
2016 51 23
6618 43 38
3265 31 35
1922 48 35
7337 54 56
3786 28 22
2634 6 36
363 18 11
1637 5 38
5812 29 12
3348 58 55
6676 32 38
6738 57 2
5057 15 42
5988 8 37
4764 54 5
907 9 4
315 20 14
6906 37 19
141 33 41
8125 10 39
4960 2 3
1939 32 0
7453 21 7
5231 46 7
3852 58 1
7222 33 10
1726 28 23
7116 35 0
7751 12 34
7884 1 36
1339 37 38
2926 44 2
7718 45 23
1253 29 1
7252 49 0
4926 7 25
5100 21 54
8139 49 29
7488 37 41
766 49 34
7706 49 3
2216 43 48
7418 30 33
3793 23 2
5523 24 44
987 26 51
7476 30 13
730 58 2
4039 18 31
1160 4 21
218 26 2
6174 26 37
4582 20 7
2895 29 23
6346 32 47
2402 35 5
6477 4 35
3914 26 25
1829 2 43
7972 18 47
5653 1 13
4403 55 31
7149 21 43
5224 20 13
8075 6 45
6570 44 21
5635 6 17
2179 32 35
4340 53 37
3224 38 56
7787 35 57
1161 35 44
1944 4 57
1172 40 17
2637 32 24
3670 10 0
5259 46 6
6688 49 31
496 17 24
7105 29 2
3101 13 38
5086 10 5
2850 30 9
975 34 41
2357 51 5
5149 46 8
3561 53 46
4072 18 35
2403 18 52
383 55 14
5986 21 27
288 35 29
4077 26 59
8118 21 34
1251 26 17
7937 47 55
1977 1 41
5391 21 59
3974 4 9
2066 11 56
2892 5 9
6047 37 37
4500 6 3
196 36 24
2498 48 43
5851 49 22
5735 6 15
7408 1 36
1175 31 40
3916 45 44
6352 14 49
3394 9 19
127 34 25
7594 42 2
2194 24 42
2669 23 31
5976 10 29
7483 38 22
3072 5 45
3336 33 30
468 50 44
454 24 46
3581 27 12
5734 33 54
6840 3 18
8150 1 41
1217 21 44
4402 4 22
6712 8 20
3929 45 45
6312 5 35
368 7 51
338 28 18
2530 7 51
7140 39 47
282 54 48
4192 31 9
28 30 5
3390 58 6
7262 4 51
7368 40 48
1867 44 56
2347 43 16
741 45 15
4645 42 55
8060 56 41
5464 44 12
2833 16 42
7650 3 33
6604 9 37
3031 53 9
5592 13 45
6548 16 28
1288 37 6
3740 42 48
4359 26 44
3104 50 29
1192 23 45
3027 46 48
7128 14 50
1041 34 43
7462 42 48
2183 38 4
1928 42 42
1034 2 16
6642 17 35
2650 13 25
1443 14 41
3049 57 27
2665 5 41
7555 42 7
511 20 41
7975 51 11
7720 35 54
486 25 56
7302 3 14
3461 18 19
2619 53 33
7608 14 22
1503 16 27
7292 59 1
3432 26 21
3705 42 5
6469 54 40
4819 48 58
2495 58 53
3857 36 11
3817 39 5
3566 15 11
6133 10 27
2260 46 19
1182 22 45
2167 40 19
7400 1 13
2425 16 1
4659 19 52
4360 37 20
4180 6 59
5561 0 6
3360 25 8
244 2 54
3767 40 9
6248 39 41
7472 36 42
6965 5 50
5215 32 9
1331 52 46
6967 16 44
166 45 45
4920 18 2
6348 18 56
3550 29 28
8151 25 0
7472 41 36
7982 3 41
6308 26 13
4946 41 57
7752 8 14
2161 34 59
8122 50 17
7192 22 27
1633 40 56
817 0 22
6913 52 55
2745 19 58
7122 35 24
127 1 57
2505 6 5
2051 47 31
4326 5 21
4500 17 43
2815 26 16
3040 4 8
3230 33 0
2665 39 11
120 25 47
808 9 40
6062 58 46
6463 53 25
2179 47 22
6320 51 40
660 15 58
5132 35 54
3312 9 28
2672 30 7
3004 50 24
2423 27 33
5875 1 23
4730 40 16
1147 43 56
3250 0 47
1846 0 54
6760 8 29
2427 24 30
3951 32 1
5886 52 43
7162 51 10
7908 39 11
2435 57 44
988 40 19
7892 38 19
3071 16 11
5726 53 19
2511 16 35
4850 7 8
7215 5 0
1534 27 52
5001 23 23
7292 35 20
6680 3 52
5344 27 31
1411 22 39
3735 12 32
1062 32 40
4898 14 47
1530 57 52
2154 15 12
1002 52 27
3949 33 2
7533 49 5
4710 25 24
6921 5 39
7820 4 51
5977 6 15
3817 52 29
5293 38 18
8097 17 34
3009 31 26
6129 17 51
3507 6 33
4325 48 50
89 53 55
2064 46 51
7784 55 58
3375 44 50
1881 13 21
2323 35 30
6237 0 1
2240 53 10
5815 49 17
7260 34 57
3727 43 51
4818 24 29
6078 56 24
376 43 8
802 52 22
695 20 49
2209 21 49
6347 41 35
673 53 16
914 29 50
3588 56 33
7423 19 49
3856 25 45
7056 37 21
4456 23 13
1350 31 25
5835 0 47
4537 31 28
3584 5 21
6484 47 43
1178 35 39
4139 6 50
1049 58 15
7882 22 44
3439 39 0
5985 17 31
1458 37 23
4289 38 55
334 14 52
3599 6 39
4962 40 7
8150 47 5
1596 36 4
7764 11 18
2452 58 57
2848 59 7
1455 18 44
483 23 14
6278 49 28
3130 37 34
145 59 6
912 1 45
4662 46 22
7058 46 25
6964 22 15
646 59 7
5837 6 25
3797 29 48
7255 47 38
3411 49 7
6941 23 6
2639 55 0
2836 33 38
390 7 24
3183 0 38
6463 34 37
8022 15 36
1127 32 5
6451 3 45
7945 54 26
1016 19 49
7011 50 45
1311 58 18
1897 29 18
149 8 10
6711 3 44
8049 13 51
5617 32 23
8090 40 18
5363 25 12
566 10 31
2035 45 13
2492 28 11
6599 33 32
5029 2 41
4747 9 44
6399 46 50
7630 59 22
4045 10 2
2899 57 20
7603 19 22
522 23 7
679 3 27
2718 2 0
7031 11 2
416 30 11
5720 33 50
6390 19 41
3553 20 43
3659 31 41
6463 54 52
4789 40 15
5648 39 19
2159 42 13
4411 9 25
4361 17 55
529 53 21
963 20 32
3088 1 53
6804 36 24
1089 32 11
2893 41 51
6061 58 31
4892 33 5
5985 9 14
6178 38 23
2026 11 16
8119 34 28
7511 31 29
4248 19 6
1229 40 38
6056 45 11
2867 6 9
534 46 35
1775 32 44
5429 34 14
3720 32 26
2369 43 52
7765 27 23
7079 55 42
3969 40 14
4899 44 52
6466 32 58
6128 50 37
6043 14 1
2431 43 35
7845 36 0
6431 37 35
7344 6 54
5479 57 50
7642 54 30
6728 21 7
5632 0 39
2223 48 21
1392 3 27
933 2 11
7024 7 39
5308 31 8
3904 55 6
2130 34 4
4236 48 58
3259 17 20
5254 29 12
4897 48 0
2722 36 55
506 25 57
3677 42 56
7764 58 27
6944 42 14
790 21 41
4574 49 29
5881 40 46
1417 38 16
5841 7 56
705 58 25
244 8 42
6889 29 16
3909 21 15
5929 21 49
3907 27 10
3324 30 0
3630 31 32
3360 44 11
8148 9 10
3833 26 8
8190 38 16
5768 39 37
3593 28 58
6972 37 19
3425 1 47
3276 57 17
2568 23 40
4560 28 24
6315 40 25
4538 41 43
1950 7 21
7251 8 52
7732 25 12
2967 49 50
8090 2 43
7509 18 40
5798 26 56
646 7 24
1662 58 56
6495 52 38
7658 55 37
5395 6 37
6595 54 2
6976 33 43
4274 40 46
2397 17 56
4669 4 23
6529 38 30
3145 29 20
2666 36 13
732 27 0
5533 30 58
6455 18 52
7089 18 18
6217 8 50
7263 41 7
5311 46 11
2930 40 42
4680 57 3
493 3 31
3098 39 58
6254 53 21
828 36 39
2744 21 57
6778 50 57
4636 49 38
3828 53 16
1959 11 48
7869 0 46
6836 1 41
5356 15 21
2894 21 6
4847 25 42
1426 13 3
7799 28 46
3664 24 35
7802 20 20
307 28 32
4091 9 24
5917 2 25
259 18 32
4232 24 45
6986 52 10
6784 50 23
2523 38 43
421 30 8
7741 45 20
5217 16 48
3973 27 58
497 25 52
3474 56 2
7810 48 26
3375 46 10
7381 18 53
6189 53 31
6576 7 53
4988 56 38
5253 57 46
1137 31 14
511 28 31
2019 35 27
2825 13 15
5824 37 53
7670 10 11
1599 59 4
3602 32 11
960 56 59
1474 49 57
5453 23 28
603 46 48
1034 2 23
7005 19 37
6364 47 6
6097 34 16
4796 5 8
4984 0 32
7084 48 28
2451 14 18
4496 11 33
808 22 19
77 56 13
5776 57 25
1141 5 12
5931 6 38
2952 10 36
6584 11 36
7020 23 24
1056 34 30
2138 43 42
3211 11 56
4787 20 45
692 45 42
1945 38 40
6178 46 38
4676 54 49
7232 10 0
1064 58 15
3516 14 49
7871 33 32
3197 24 36
6481 27 48
2374 44 33
6073 17 12
7557 11 50
4731 36 36
2392 36 46
5524 5 44
4827 57 50
2753 20 23
3797 9 48
577 55 7
1362 25 51
3735 30 9
647 15 12
6221 39 40
7025 43 9
1451 40 14
4711 51 3
1478 52 24
2081 18 25
1541 11 20
4645 53 38
3892 1 8
1229 12 16
2834 6 47
5190 35 30
7339 43 2
2153 26 54
1341 52 46
4581 42 56
6878 11 8
6523 40 1
5889 1 54
2857 22 7
4985 56 5
620 55 32
347 2 7
1497 24 34
707 41 26
730 14 0
5362 12 12
6990 23 52
6976 20 45
862 10 8
5681 15 56
3078 8 51
79 23 54
6326 40 10
1956 44 43
4831 34 49
647 20 1
7331 7 25
4952 55 37
5593 29 39
2293 11 55
6078 41 55
5753 52 10
467 3 42
565 39 18
7388 42 52
941 38 5
4487 45 12
8164 29 59
1477 59 28
3669 36 31
3340 10 13
1111 28 5
5521 31 0
1683 45 40
6690 33 22
4886 19 52
1635 50 30
3927 46 59
2354 19 50
5971 24 27
4074 16 29
7935 55 49
1249 44 21
6725 0 58
1745 42 31
7524 8 42
132 40 32
3286 15 18
5554 50 30
4336 45 46
1927 11 3
4405 51 50
1138 28 27
787 57 27
3917 7 1
1533 31 9
2767 47 41
3916 34 49
4950 12 31
7348 40 16
6587 28 19
6006 37 10
6716 35 30
6047 47 28
5682 56 27
4119 29 58
6245 45 37
5502 25 11
5819 23 15
1358 52 48
6282 59 8
90 1 45
7100 53 12
3987 5 59
5667 43 48
5694 23 9
3400 4 46
7109 18 11
3725 14 35
6992 48 27
4864 23 18
7460 25 19
2801 29 4
218 56 9
497 51 45
7557 13 8
6547 17 4
233 7 14
725 0 28
4780 0 9
3363 41 32
3061 29 49
1688 55 10
5960 25 7
5542 54 58
6115 12 4
3607 23 21
4263 28 28
5393 45 20
4626 29 13
3319 40 54
7755 1 15
1640 33 2
266 10 27
7621 48 22
4796 3 26
5676 26 49
5469 45 17
3094 18 55
2274 12 24
1811 7 5
6569 26 58
7625 34 32
7779 53 34
7251 18 14
6537 42 17
5003 54 43
1004 28 20
2965 30 38
3420 36 43
7149 56 42
1130 9 9
4808 22 43
3488 46 36
3130 21 47
1084 26 21
3465 41 16
5688 45 44
3824 6 6
3267 15 42
450 48 38
6884 18 40
5749 46 2
6877 39 40
2341 5 1
7956 38 19
3942 19 0
4166 36 45
5906 12 52
4064 19 59
914 9 47
6461 42 5
2697 15 51
5439 32 30
6084 18 28
3689 42 58
4793 36 9
6205 38 45
739 24 50
7743 16 1
6062 43 11
2845 40 45
7414 17 0
1 56 25
480 16 35
3788 38 17
2818 11 54
1035 44 24
4129 3 49
7731 14 57
6916 16 32
2135 57 4
272 51 21
7077 29 18
4850 29 34
4125 57 4
4666 23 15
2224 50 0
965 3 3
6794 58 10
7391 55 18
3672 54 16
2096 39 59
5362 24 20
2524 26 49
7858 11 46
479 5 1
1562 46 52
930 51 55
7514 37 46
4480 12 33
6082 20 19
6974 25 58
6378 51 14
4294 35 40
1204 53 43
894 8 41
6184 31 27
1724 53 18
8027 3 47
57 23 59
1114 54 12
5142 32 37
4220 10 20
5427 9 55
5419 57 40
131 23 49
2420 43 12
6319 55 57
4601 3 1
4060 48 24
3895 59 10
7779 29 43
1424 57 53
6576 32 2
1183 40 51
1296 23 7
7393 39 50
4653 22 46
2198 15 41
7543 55 21
592 34 20
3810 18 41
7789 30 39
2523 11 3
497 38 35
2917 46 50
2484 35 29
5382 36 51
5144 35 6
1605 34 1
3015 50 28
2295 9 38
4589 10 8
5924 57 11
3535 47 42
2843 20 28
3977 0 56
1167 22 32
730 31 59
7269 20 34
266 23 16
2 47 25
6064 44 28
3493 12 25
7056 43 4
1554 42 16
4667 32 16
7403 43 31
6223 45 2
3327 46 14
6257 41 38
7413 3 17
2415 56 53
7243 57 5
8036 9 40
5293 56 23
1929 11 55
430 6 30
6177 33 15
7931 0 54
7297 53 35
7291 3 30
2016 22 26
4253 17 15
3542 21 25
3419 30 13
6726 56 16
1057 30 22
3963 35 55
7982 42 56
4000 47 49
475 31 44
5602 23 6
868 1 15
6152 43 37
3933 6 59
3958 44 55
2702 17 25
7568 12 0
203 23 34
319 27 22
5981 51 45
25 53 8
1252 5 9
519 33 45
5864 18 43
6196 16 28
3443 30 37
6229 58 50
4345 22 13
5724 41 32
1278 34 23
6491 12 8
6995 56 14
7045 47 39
1990 16 58
3441 36 14
1741 43 37
6139 16 35
4213 50 57
3946 50 31
1146 4 5
4482 55 9
3170 2 5
6272 3 53
3556 49 1
7146 19 29
4616 8 12
6861 35 29
5065 52 11
7622 14 53
6661 9 57
8163 27 52
3960 45 46
3498 10 42
7295 14 31
4832 8 42
2305 16 51
3157 2 26
5426 15 19
5265 17 33
206 51 34
7911 22 53
2103 2 39
6162 40 49
2556 11 55
1467 35 3
6338 28 19
2525 26 13
4359 52 20
7862 22 38
596 52 21
90 12 43
2636 7 37
3211 49 18
8088 13 21
4439 1 57
7602 31 17
5809 52 43
5923 39 28
4815 30 50
1917 54 34
3890 44 38
2513 36 46
1747 51 35
5089 55 49
3450 54 50
1663 48 21
2033 54 5
7716 13 36
7756 36 6
7418 38 52
6909 0 37
5947 58 5
6637 25 57
6949 10 52
1246 8 39
7380 4 27
7113 17 13
2970 57 18
7502 6 55
3997 56 33
1241 13 33
7518 9 23
888 50 48
945 59 50
7585 57 59
672 29 3
4192 22 12
7569 20 9
344 47 7
3715 20 4
3216 45 17
2737 48 26
4793 48 17
2937 45 8
2260 26 58
6211 47 27
70 35 50
2254 28 2
4095 48 49
5159 55 1
4671 35 47
1348 41 27
1139 18 7
2488 27 52
4152 27 10
7378 26 57
3162 12 24
6808 10 53
4902 10 33
4948 17 21
2749 20 56
7740 40 37
2863 19 47
5390 15 15
8074 12 42
2117 6 1
4574 28 13
3255 40 16
5728 39 26
4145 27 35
2222 16 55
3175 45 27
1548 32 47
2136 35 54
7875 13 6
4641 2 5
6838 49 33
6344 52 6
5412 48 45
8138 17 12
3297 8 20
3752 47 57
2659 55 30
1158 51 57
1737 2 10
355 40 13
4392 26 54
626 18 46
4056 18 34
3201 44 51
3009 45 51
6229 25 30
4219 33 26
8033 19 17
6678 0 12
36 40 52
6609 24 10
6395 34 21
2649 58 39
1099 59 24
5891 4 1
2862 22 27
3381 45 52
803 22 11
5456 56 12
640 32 52
7380 14 8
7939 49 43
468 3 33
6763 50 25
2195 13 21
6445 36 43
6880 21 20
6160 24 42
5443 52 30
6467 25 3
1395 49 17
2812 24 58
3151 20 1
6468 48 44
7773 39 57
1883 24 25
3218 28 38
7807 24 2
7297 24 55
176 43 12
2863 39 1
5584 43 18
6542 22 38
196 34 18
4028 4 50
7545 55 6
5419 29 35
1029 24 51
3372 46 15
1519 46 51
4303 41 22
2720 53 5
4710 55 27
2549 59 53
2999 47 57
65 25 52
192 36 22
2067 17 38
3658 1 16
2218 32 2
4213 23 35
2847 8 20
932 10 16
1619 43 7
3184 27 55
5210 8 12
1386 40 48
3124 47 57
1847 46 59
4851 44 31
4122 33 47
2521 44 47
5634 52 57
3618 27 33
4861 47 0
5200 5 0
3988 16 41
6644 40 28
6006 35 6
5445 47 50
6480 53 15
5223 42 59
4394 44 43
512 54 10
4317 12 50
2425 16 55
3093 33 3
6514 29 36
6563 23 3
6897 8 50
1544 17 43
2907 12 18
5643 47 54
2490 11 41
3261 8 45
2947 57 1
6758 38 26
7890 1 56
1274 44 11
5141 25 20
7960 49 37
5659 29 41
761 8 20
7092 22 23
3693 39 31
3618 46 20
3875 33 51
262 23 44
7614 49 20
7361 10 45
4949 14 35
6858 54 4
1928 43 4
2744 19 18
1628 36 58
2895 38 36
780 34 9
6567 48 24
2195 58 13
2419 19 16
5944 53 22
6123 3 16
5863 39 52
2615 36 11
7062 4 48
6080 47 26
2616 51 52
3430 38 32
26 9 30
1872 8 42
5916 37 35
3734 40 30
987 40 2
6627 35 38
3170 49 34
2502 53 21
49 26 5
7877 0 35
1674 58 45
5436 2 45
1950 14 22
4357 57 3
3132 40 35
202 23 10
6504 9 52
7282 36 37
5431 29 55
1732 6 47
2752 16 46
2493 49 40
3374 3 47
3149 37 44
7940 41 24
7227 47 39
3625 23 40
4197 33 16
6831 56 37
5950 17 44
4986 13 52
3964 54 33
4756 12 37
5087 53 6
499 37 47
171 48 26
2538 2 49
2579 7 14
2795 50 2
3237 21 19
3589 47 32
5525 51 18
6291 27 31
7836 43 24
6326 42 54
4893 58 34
3739 52 36
1176 19 36
4486 55 26
2716 8 47
5792 57 26
80 38 9
4459 53 29
5918 37 12
7606 27 54
1080 56 52
1759 51 37
5075 27 56
7035 17 43
6278 2 51
561 58 48
3064 26 19
1365 5 12
222 7 50
4722 26 9
7173 38 6
7745 17 49
786 25 17
5259 8 26
7574 10 20
2778 52 18
2650 0 45
4525 9 42
6502 56 42
32 38 8
7825 23 38
2007 53 48
2701 51 13
2890 46 13
7060 17 16
1545 31 8
327 25 0
3488 47 9
7295 13 57
1281 21 36
1245 38 59
75 46 44
7723 51 28
4688 13 14
6198 53 23
2146 54 54
1286 14 20
6682 10 59
3315 49 4
7793 2 17
261 23 55
4276 23 41
3009 2 24
5437 47 37
435 45 23
3771 59 17
1837 13 23
5477 27 34
2832 42 15
404 3 10
6417 52 33
4121 33 48
3714 50 43
7899 35 30
3180 34 15
4811 41 6
6145 43 11
7508 56 30
4198 1 12
3510 9 8
6724 35 0
6893 40 25
4094 26 15
6049 37 50
1063 10 17
3526 13 58
7392 18 33
5755 55 30
5297 57 31
1141 7 32
1081 27 59
5378 13 39
1923 47 6
1919 4 35
2609 43 45
4430 37 51
2961 37 9
38 40 56
1140 21 54
907 6 53
7936 0 13
4067 46 26
1615 57 13
4293 8 9
3616 10 44
2766 20 21
6553 21 50
4738 4 30
4831 0 51
2837 28 49
2266 28 49
1651 19 35
7885 50 25
486 11 33
1887 8 35
4959 42 56
5036 59 17
1318 25 13
7752 48 14
5059 49 34
2573 52 2
1374 59 13
6842 33 56
4515 11 7
4504 51 7
1228 14 49
7308 59 48
1129 25 6
7307 22 46
2405 1 36
3715 30 20
2789 49 19
3694 27 52
8046 38 56
3754 6 47
2625 10 53
7427 10 52
135 20 10
1873 43 24
1088 12 25
616 15 48
2724 12 29
871 14 56
2944 13 26
1236 19 32
5827 24 43
5292 19 45
4669 55 5
5275 28 40
6671 56 52
5724 52 59
5008 0 3
5897 36 18
7041 48 23
4763 4 42
3568 51 6
4683 39 18
7224 12 13
4130 47 41
2706 38 30
5359 55 14
7610 59 15
4058 25 43
6588 46 31
6863 34 27
445 54 18
6343 49 49
7409 21 54
3778 59 33
5516 18 12
5518 21 7
4400 23 58
4887 13 15
7850 21 2
8041 52 36
6696 57 22
1450 1 11
5788 30 24
7994 5 24
5151 13 42
3931 43 3
1866 19 18
3965 11 32
7932 37 45
4426 35 30
6402 51 19
1044 26 20
1227 42 43
5984 0 40
3060 43 53
3354 39 28
4033 41 47
4515 26 58
667 27 28
7269 29 55
6607 0 46
7318 52 4
7555 56 46
6534 16 46
8034 52 30
1187 10 9
7895 23 42
7982 46 1
6337 42 20
2617 15 49
4864 10 41
3390 32 34
7839 7 30
7613 17 38
2516 15 30
5890 58 40
5283 9 55
2561 0 41
1690 41 15
2410 50 22
956 54 32
3729 36 57
3583 31 56
1745 5 14
4199 17 21
5813 59 20
1749 34 21
4232 51 13
1394 2 54
2093 40 36
5408 52 30
1560 46 7
6061 13 30
1890 11 27
3772 30 44
3357 20 35
1833 41 9
7095 58 1
2548 48 55
2723 53 35
2043 13 20
5374 58 6
7913 39 19
1115 17 22
787 53 53
1251 59 13
207 16 46
2936 55 44
3809 48 24
4516 27 10
7468 50 23
5428 28 13
2126 13 53
1145 29 2
4232 12 56
7393 31 55
58 26 3
360 23 59
4341 20 47
5201 5 14
5035 25 56
1059 57 17
3024 35 30
609 32 59
3896 44 3
272 41 35
1287 51 53
582 48 16
5253 13 29
1464 10 34
130 10 51
3295 25 48
8140 53 15
6194 15 47
6766 31 24
2449 43 5
2688 42 49
7690 36 29
4006 38 42
3639 10 44
2913 49 54
1104 24 19
3640 8 13
4455 22 20
4695 36 51
399 54 34
7152 30 8
437 0 44
5190 39 14
1176 46 25
1789 20 6
3871 36 22
291 41 30
2264 0 52
2208 59 29
4019 14 15
7969 35 45
7153 36 38
2153 7 17
6416 19 3
5021 16 15
6291 8 52
5329 3 33
2083 11 25
2747 39 17
5896 50 31
5787 35 58
5109 20 35
3359 57 34
4544 41 53
4111 42 10
4975 49 10
47 18 5
1160 9 16
4577 53 47
6802 57 37
42 9 4
7832 58 24
6035 25 13
8033 1 47
6811 40 21
4157 27 11
3943 6 21
6460 10 31
5780 40 16
4111 26 5
5472 36 14
1448 45 4
7384 20 21
857 30 22
4668 25 55
7454 30 22
7313 37 29
1382 41 39
8129 9 19
5725 16 38
67 52 14
5133 32 51
1458 36 12
591 45 34
7078 42 59
453 0 21
2075 21 50
3800 55 31
6788 1 32
7423 14 48
4317 33 32
5704 59 4
3031 29 32
2335 12 9
3457 10 51
5016 3 43
2977 19 56
1283 55 52
6394 11 45
7706 31 59
1138 28 33
354 40 24
6802 36 53
3290 35 57
7060 17 8
6395 49 11
559 43 22
5055 18 18
4883 33 21
8172 11 44
4264 38 13
1417 28 45
4765 23 13
7574 41 49
2243 9 6
4043 21 47
5235 8 22
7893 51 41
7627 27 14
3033 39 25
1533 51 55
7446 36 24
1900 37 39
4309 23 12
626 15 14
2500 58 35
6756 1 35
8178 11 26
8051 38 53
4577 27 25
5463 45 16
3654 23 45
7698 39 22
8013 9 38
7890 19 45
6196 36 43
1135 40 37
1458 58 48
4028 58 26
5538 11 46
5967 34 31
1387 53 46
1408 35 26
2603 41 27
4353 7 46
710 39 22
3909 38 54
2802 12 45
5282 12 35
2593 50 38
5959 1 13
530 21 6
1944 25 33
3910 52 14
2545 49 13
6668 31 52
2394 49 30
4673 51 34
5298 34 39
4129 35 29
5743 22 23
7412 40 36
4598 44 1
5000 7 46
246 48 27
6420 16 51
5140 59 40
5735 36 23
1469 42 49
4564 31 24
4174 50 46
6265 31 18
4033 1 55
7078 5 2
1620 24 42
204 56 59
3539 12 58
7343 59 26
6226 13 0
5472 57 31
7672 11 21
2403 32 44
6577 37 38
5756 28 43
3850 4 7
3405 8 3
2896 55 16
4718 22 7
5352 5 12
1904 37 10
6695 33 13
892 0 46
101 54 15
727 42 43
7770 25 48
5094 42 48
7309 58 36
3173 56 50
6613 20 55
2713 44 24
4231 23 50
7149 23 50
1347 0 44
7242 15 27
7338 6 44
3254 4 18
3386 57 8
3082 59 4
1493 8 24
4844 21 0
2225 37 23
1307 6 38
4493 13 39
1978 35 46
7709 33 52
961 19 48
1523 46 46
4099 48 37
5215 33 37
2031 22 58
4643 27 27
3362 22 33
7272 7 38
91 37 6
7122 18 39
3366 43 51
2111 26 29
2473 17 9
7626 12 43
7799 15 5
5705 26 24
5577 44 46
6370 41 45
1241 16 15
5623 30 33
2278 37 17
2653 24 43
1942 57 1
3228 59 5
8003 46 21
4728 15 39
3820 12 24
6586 35 57
1135 36 13
5830 43 44
3804 21 13
4209 43 37
376 41 34
4597 41 33
5703 32 11
5724 12 18
1111 16 31
3419 58 6
3536 18 34
1554 52 9
4594 0 22
7831 25 5
5184 34 47
7318 35 20
5475 34 53
7454 46 57
2576 38 6
4611 45 56
3545 50 14
619 0 59
1456 54 59
143 1 25
7524 45 51
967 55 26
84 38 53
4685 16 31
3114 20 9
7384 48 47
7697 13 37
5187 13 37
5686 21 31
4806 44 24
6755 21 9
3718 28 56
292 56 26
2181 17 42
6917 28 2
7418 36 42
7105 41 56
1322 53 9
8007 3 22
7178 13 7
6666 40 20
3463 58 48
4887 43 45
29 4 54
4535 57 14
4598 0 43
4828 41 24
580 8 17
665 55 13
6540 14 26
1963 48 7
2651 32 5
1379 3 40
6424 1 37
6087 32 34
3481 58 26
5992 7 8
4933 11 8
5490 25 3
5159 53 9
554 28 58
6621 15 30
2502 50 25
4875 3 26
7728 2 51
1594 15 49
2085 4 56
8113 9 0
4617 31 17
7796 59 2
254 53 30
5040 46 37
1042 44 27
1339 7 30
5962 7 32
3061 42 40
5426 35 36
1503 28 45
63 37 8
1772 33 59
4978 39 52
3452 43 38
8037 9 15
3728 53 14
5143 3 22
1983 56 56
5923 30 31
6571 1 59
668 24 28
1897 4 53
7224 46 33
821 50 8
5691 31 18
7954 40 3
4293 11 6
2435 14 54
3975 50 24
2806 53 26
7041 34 42
4913 23 47
4218 11 25
5211 44 16
4740 48 47
3846 6 19
3869 39 30
2579 26 37
3037 9 19
2477 15 12
2403 12 46
2878 37 1
5673 48 5
7574 31 49
3842 15 37
2514 17 36
7317 22 15
7012 17 34
3581 14 35
2948 28 51
3492 59 3
5883 5 33
3824 58 13
4541 17 36
663 43 52
6072 57 1
4148 23 24
7376 19 41
1806 52 48
7797 36 8
3580 32 59
4388 7 5
6941 36 55
7266 17 12
2382 32 56
5222 25 45
3248 53 8
328 29 27
7233 31 11
2425 9 47
4765 29 20
273 53 19
18 42 55
1481 36 5
4046 7 37
3362 29 2
1943 45 48
7108 17 9
1291 31 41
4459 24 42
3174 18 11
930 3 5
3610 1 39
6845 46 16
6986 36 23
4696 22 44
6046 54 22
6994 34 39
6724 33 2
7041 44 19
7551 35 37
3642 37 40
7895 59 33
2675 9 11
3439 15 40
4378 59 2
2522 30 56
1120 56 22
500 24 48
7894 33 24
1153 16 59
1426 3 29
794 54 28
7467 25 29
6543 4 37
2067 58 36
5593 45 6
2682 45 55
440 25 11
160 0 45
6301 1 53
5652 32 56
7337 34 43
6774 2 0
2615 41 5
1848 52 3
977 5 40
6047 59 18
7670 24 35
4378 28 35
3211 49 29
3528 18 1
781 7 35
2864 17 29
4260 49 10
217 5 54
3305 42 52
7853 26 51
6791 48 7
619 30 28
5422 49 17
5971 54 27
3692 47 27
7572 23 36
501 59 25
5408 33 23
7974 2 5
5602 11 23
974 31 12
2721 26 34
2813 48 24
7551 48 18
6202 32 57
6105 52 20
5842 42 11
8027 34 44
6318 12 46
1692 43 50
195 57 21
1307 18 47
1214 8 35
3126 15 15
2380 41 48
7949 35 40
6313 5 14
1732 0 40
2617 11 45
4079 19 20
5781 50 17
6322 18 27
6321 28 35
3009 46 42
2356 22 24
8056 55 51
3105 48 56
4387 44 48
928 25 59
701 45 18
1117 54 1
3150 17 19
1329 18 39
6661 55 25
2119 40 47
2099 12 42
4514 17 22
7014 37 58
1243 29 16
1710 6 1
1917 3 47
2058 17 56
3441 50 15
7280 59 10
317 43 50
1316 50 55
1842 41 12
16 27 41
5762 54 10
5314 21 16
2751 6 19
3855 36 28
6755 25 11
1390 53 10
7153 38 45
1823 2 36
1650 8 9
1547 20 28
5900 38 23
7447 5 44
6887 24 42
5339 31 18
5951 27 43
1862 37 28
7925 50 6
1682 46 8
1618 36 8
4055 31 28
7816 8 58
5951 3 3
171 58 28
585 5 51
1059 41 18
5034 27 56
3406 16 38
4684 51 24
1992 53 53
5364 5 16
6624 45 24
3342 40 19
834 19 18
1850 40 23
2053 3 56
8 9 24
5296 43 32
494 15 23
3811 55 9
512 35 14
336 35 51
993 41 23
1736 43 42
1262 5 14
4910 19 17
2246 51 26
3326 11 1
7883 1 16
1214 16 3
1323 16 30
4073 25 5
896 6 46
5935 58 22
2977 1 27
799 27 38
460 41 21
6994 20 24
7423 31 26
6431 5 34
6010 41 43
3332 22 8
5021 47 14
6228 42 4
7786 12 5
3353 47 32
3176 40 6
7261 58 26
4522 10 57
3644 37 54
246 0 27
3033 52 50
4149 58 37
4587 34 11
6084 32 15
1709 49 3
4566 45 43
516 55 41
1078 29 43
5943 13 13
8133 39 13
781 41 5
4343 50 55
3332 6 21
3683 18 53
183 35 43
1822 17 20
869 5 15
4318 19 36
3210 22 49
3975 20 21
4432 45 2
7913 52 44
3057 36 42
4282 15 0
2992 18 28
2539 24 45
6099 13 43
4551 28 2
2415 26 25
3337 37 37
7562 53 22
1740 6 14
6404 7 42
1567 30 57
1503 46 8
7923 37 32
817 48 38
5276 15 6
5994 11 32
723 56 1
5788 10 54
5586 10 52
4460 54 0
5742 21 30
4924 49 8
2188 36 45
7548 9 25
5490 17 41
332 28 52
3476 55 48
2513 0 50
1875 18 52
1284 51 46
3796 49 8
5502 45 49
1202 49 17
1627 18 19
4684 24 36
6733 29 4
1997 5 0
2005 35 52
6127 58 10
7911 14 53
5570 30 43
670 0 20
2907 46 10
3820 9 28
4227 58 44
1212 19 13
768 25 11
3620 18 46
7364 46 44
1203 13 59
5980 19 21
2863 33 22
4968 28 0
6290 41 10
6186 12 0
1954 20 11
2120 25 36
1967 29 47
4009 10 33
1929 1 38
5204 37 58
1246 49 23
3748 29 44
5720 3 25
598 5 37
1258 43 50
6242 35 15
1162 38 36
4409 19 46
5726 53 47
4833 9 17
7299 39 6
5602 31 27
2650 24 30
2263 18 27
477 13 10
6695 19 38
5302 53 16
8110 15 36
6101 1 21
476 26 22
5409 41 2
7379 12 33
3162 26 49
7240 6 8
1223 15 21
3450 6 40
7848 12 25
0 54 32
300 15 34
2485 24 52
3568 41 34
4794 13 38
1719 3 4
65 16 10
429 55 17
4070 45 15
846 57 27
111 26 14
6276 22 29
490 32 45
3970 4 27
7632 30 32
694 21 27
2191 2 43
6193 51 39
4987 53 16
5266 35 14
4142 35 40
1532 7 54
3537 5 26
2443 55 30
3658 12 52
6370 58 6
5549 57 8
245 59 52
8064 10 45
7880 36 21
7542 30 48
7050 30 55
6705 0 0
799 7 47
1094 33 51
4190 31 50
3616 48 47
7629 49 38
273 21 48
2002 2 25
5471 48 47
2599 15 10
7854 28 10
5342 7 9
7226 17 42
4753 20 5
6811 20 53
7399 21 35
4517 22 56
3154 53 50
383 44 39
346 16 46
4576 42 14
226 1 21
6123 7 31
1349 4 43
466 44 3
832 11 25
2691 8 39
5915 54 32
2002 49 9
6685 32 25
2439 24 7
4161 19 8
4458 22 7
4425 52 4
60 26 48
3172 54 51
5005 49 59
5832 41 46
7657 15 27
7758 28 59
543 27 16
2058 24 35
1263 50 49
5382 40 41
2786 4 0
286 40 46
5281 25 36
5905 50 9
5311 39 16
3882 37 44
1966 52 3
4138 22 27
2433 45 9
2974 16 41
7112 58 46
7120 21 18
3830 26 44
8126 31 26
1347 6 5
1879 9 34
23 11 26
6410 21 40
625 58 18
3511 24 34
3108 32 32
7670 24 45
3985 11 12
5249 25 35
911 41 34
6820 12 43
6158 28 46
7660 38 59
5192 8 57
18 47 21
5712 59 46
485 58 10
1006 7 13
4366 0 39
86 11 12
1668 11 24
4803 53 44
3265 53 15
1192 25 15
1017 16 2
5714 40 53
6012 29 51
839 4 58
2216 42 50
1887 48 1
1199 28 12
2032 43 57
4408 44 42
6547 36 0
882 25 8
7308 28 48
4358 16 10
7893 7 6
5516 12 48
2474 47 29
7872 35 49
3952 31 33
5066 11 9
2488 59 38
1412 53 3
1856 50 23
1341 40 40
351 13 39
8085 45 51
4333 8 31
5566 24 58
5260 44 29
25 54 40
1318 47 31
2140 31 25
3508 24 15
2943 5 47
6459 48 52
6703 29 30
5890 58 38
5909 49 54
7959 29 30
5880 34 25
4081 40 4
916 25 35
5461 5 59
448 8 56
6619 44 36
7292 51 5
7982 49 56
2972 11 45
134 30 6
3420 19 32
1513 48 4
5093 32 21
7381 50 26
2040 6 27
6797 10 3
5617 58 54
6587 24 35
5847 12 46
772 46 17
4814 50 36
1614 12 16
682 29 48
4160 22 30
7362 7 37
5041 40 47
3656 49 45
1718 56 1
5118 59 5
3380 39 51
4465 17 33
6061 27 37
4057 34 7
7562 54 21
5652 40 20
6969 54 52
1748 54 42
5473 57 30
1550 27 30
1143 35 1
4386 1 11
6508 46 30
829 56 56
636 38 50
5118 42 31
8122 32 17
63 52 11
2941 58 0
6959 56 19
1581 52 55
3963 38 48
2534 50 34
7100 40 22
1961 28 52
7659 38 35
6982 53 59
4971 8 51
5283 49 49
1443 8 38
6763 42 30
46 17 8
2142 55 51
2728 3 31
5863 8 59
2723 56 30
7154 22 15
1549 58 23
4041 45 12
3718 32 12
2132 31 46
426 25 55
2987 7 50
8130 16 46
301 39 46
4712 54 42
1906 45 57
5 34 55
7264 7 40
2048 22 4
7701 14 36
1227 37 1
2975 52 1
7285 6 9
4875 35 48
5898 3 42
1628 54 19
7241 51 46
3132 12 45
2776 36 7
7617 5 22
8033 21 51
4070 32 43
6063 33 41
356 5 16
1004 31 11
2539 31 57
3922 29 49
6704 21 53
6734 46 29
7729 7 35
3631 56 56
3058 38 20
805 14 53
5002 6 50
7758 31 21
5594 38 45
415 56 14
420 1 35
4681 51 13
7055 40 12
7050 52 0
5894 54 39
6562 32 45
8147 42 51
7334 9 22
1827 39 52
1448 6 49
5246 15 50
8162 16 33
4779 39 13
2716 37 5
1812 15 52
6139 21 16
5376 5 58
8072 39 59
7038 34 38
4815 7 37
5324 53 52
7078 15 0
427 35 40
1292 7 17
5114 39 25
6758 35 38
7030 23 43
2740 55 22
1648 42 49
1154 13 48
1675 33 41
3631 35 49
3512 10 24
180 58 23
685 44 2
2730 14 37
4685 0 53
6504 37 40
7331 5 22
800 11 27
4744 47 0
8025 6 27
2422 34 37
906 34 28
6193 44 4
3712 18 19
7793 39 11
7430 28 48
2503 39 53
49 31 57
4885 3 44
5949 24 42
2129 19 9
2042 37 43
6982 19 19
5679 55 38
4890 0 9
3453 59 37
4110 38 8
315 31 39
1416 52 42
896 6 59
2387 47 18
1208 57 47
5731 36 6
259 19 1
3905 13 2
4970 18 53
1768 12 31
1628 52 54
5352 28 39
1298 41 37
5685 28 16
4551 32 13
6995 11 41
2825 10 0
3947 39 13
1769 18 24
3722 34 36
4117 50 20
3003 46 41
5266 9 14
471 30 42
7131 2 14
2713 13 25
2390 30 36
3651 49 15
3192 54 25
4468 52 59
3397 13 42
293 29 20
4766 15 29
1328 39 52
558 18 46
3664 3 59
8186 30 29
6190 57 11
1581 21 5
7523 18 50
1206 43 3
644 28 32
2997 47 40
1370 27 19
1450 34 29
7788 2 33
2803 48 3
5705 2 52
4056 24 13
7817 11 23
4327 49 6
5895 10 27
7331 51 14
5711 53 33
1506 48 7
1848 28 2
1257 8 50
2124 9 45
8100 21 1
5993 30 12
273 38 53
2527 33 3
4858 0 46
3840 8 40
802 26 20
4493 22 48
2195 35 48
2094 51 49
2187 59 10
4056 5 41
7032 42 11
4129 17 44
4185 12 44
2003 28 44
7147 10 11
4683 0 25
2400 43 1
3100 17 52
4298 36 44
1856 48 49
3593 12 23
5644 22 32
5712 27 44
2937 18 5
3029 42 15
7496 25 7
1802 57 51
3587 10 0
6783 12 37
3107 16 17
6744 2 30
1583 50 44
6536 15 3
1884 16 21
7853 1 3
669 58 29
1208 20 18
3475 35 20
1372 42 32
5277 42 49
2862 22 43
1160 18 33
4300 54 40
83 6 56
6897 24 58
7312 49 56
6013 21 8
5400 29 43
380 37 17
3445 22 59
66 24 14
2029 41 24
6786 41 18
3667 37 16
3799 54 40
2021 6 29
5829 40 43
641 24 4
6428 28 41
5398 5 55
657 15 11
7143 16 52
1863 35 26
7737 42 3
2074 37 57
918 31 3
4940 12 35
7155 54 59
2847 10 28
1580 52 25
439 18 41
2286 49 49
91 53 24
6345 58 58
4748 28 28
2197 31 51
6004 47 55
5800 46 49
6983 49 0
1743 25 44
1717 56 54
6970 38 44
3147 5 29
5228 58 27
494 54 48
938 39 11
389 28 58
4677 52 44
6250 7 25
3346 43 50
1363 36 38
957 18 8
1081 33 14
3598 13 4
8054 52 51
138 50 30
5345 32 58
4039 17 42
3375 51 42
6200 10 25
5902 13 1
2920 2 11
7732 28 44
4046 22 50
6399 44 34
3154 38 16
4700 43 48
659 46 5
5021 17 49
195 21 59
4308 7 4
2693 23 58
2320 56 26
6337 34 49
3587 9 25
2757 35 4
4785 32 47
1870 27 26
6879 56 35
1488 0 49
5427 28 56
3675 50 12
5382 22 8
3436 23 42
1437 14 52
7439 39 27
5195 21 51
50 51 10
4236 18 59
4744 35 59
7773 50 27
2841 54 17
1061 4 32
1973 32 55
1432 42 10
5836 25 41
1955 4 2
2683 22 45
485 7 56
384 19 31
2575 28 13
3175 25 7
4876 35 3
1808 44 28
308 28 10
3962 4 27
7335 52 23
7022 39 37
4891 28 44
7823 25 3
922 12 23
6000 27 49
2155 52 16
2963 48 52
3667 32 21
5705 26 17
132 54 9
335 16 48
6364 23 17
6073 19 34
4204 45 38
340 17 58
5513 57 42
4401 32 30
7169 35 3
7058 32 21
1712 56 15
1277 43 23
246 59 39
7295 0 58
6425 57 35
211 9 53
21 18 42
2539 27 14
1382 28 41
5049 51 13
1118 23 1
5118 12 44
7685 34 35
5520 13 28
6446 18 25
3194 2 34
1763 35 44
4309 51 3
5603 37 31
1120 18 22
4757 12 45
262 22 50
4354 48 24
7013 52 38
6121 55 48
5882 25 50
6636 48 18
5704 45 9
7487 48 38
2771 32 48
6805 21 0
4919 3 15
6581 29 55
3845 30 47
4007 52 42
5300 38 7
7934 43 47
3740 31 32
3449 23 20
251 46 44
7387 23 57
1400 30 0
3791 35 29
5862 49 52
4941 40 36
7476 12 6
275 35 49
1487 7 21
7227 41 44
6716 0 22
1072 52 37
3246 52 8
5306 51 35
3416 45 24
4588 26 57
6752 42 9
7598 6 36
5572 9 44
6377 36 25
1117 16 17
755 33 9
3904 55 53
7292 1 36
1116 37 21
5604 57 48
189 45 30
6555 48 28
8059 24 29
251 29 6
2964 2 14
66 57 47
7135 29 34
997 2 36
1825 10 13
7291 42 3
5951 4 48
5281 27 28
5558 34 52
75 18 13
4253 18 15
232 28 12
5467 48 34
6822 45 36
1410 26 46
839 21 20
1506 4 16
1971 18 43
1639 52 18
6084 47 28
5297 49 46
397 5 7
329 52 55
807 22 32
931 20 58
1817 16 20
878 22 24
6494 9 34
646 25 18
7776 33 6
3560 54 47
7346 23 52
2817 5 36
5300 12 59
7600 4 11
3351 25 27
8035 15 42
3027 14 51
1802 56 16
1724 48 41
2870 8 28
1301 6 51
5441 12 48
4374 4 53
4921 29 49
300 44 14
7736 11 22
4158 2 36
7921 28 24
4282 57 12
7515 31 12
6535 53 10
1739 58 14
1647 40 11
7068 13 32
2549 50 16
6292 46 27
2790 24 29
6730 53 50
2374 23 39
5690 43 10
3854 14 55
4212 37 46
1391 41 18
690 29 24
1518 7 14
7226 59 0
1273 13 24
3070 55 9
6228 1 33
4279 11 8
94 25 22
3165 49 52
2551 28 33
2626 18 54
118 32 1
3520 2 0
4184 59 5
6268 10 0
1309 2 53
1782 42 4
7010 16 29
7145 45 11
3925 1 39
7190 35 50
7624 33 22
7778 37 25
5750 41 16
4332 1 26
2060 22 21
1310 25 3
7770 27 11
720 52 56
755 9 57
1074 51 24
2368 28 57
6155 58 26
3276 28 59
3196 4 0
795 33 23
2300 47 40
3799 5 7
5386 45 52
2034 36 1
4488 59 45
7180 11 5
2038 54 3
772 46 31
7568 3 28
4116 38 53
8111 34 40
4951 17 37
1647 19 23
5343 9 51
3580 57 42
3549 2 54
4682 4 40
6565 24 27
6757 52 30
1397 5 0
738 40 26
6090 48 43
647 55 54
1514 54 3
1254 46 53
940 24 55
2942 58 51
5223 36 15
2866 45 8
7260 14 5
2816 36 45
26 38 25
2689 9 12
7999 56 6
1606 34 45
4383 46 1
7126 1 59
3681 48 35
3013 2 20
4497 38 26
4058 6 2
1615 0 32
2121 29 42
7221 52 38
5876 10 4
1665 30 50
6330 36 43
8169 34 23
5557 47 17
5249 0 55
452 18 53
94 13 45
2075 34 6
7041 0 58
123 24 9
7151 33 31
4489 43 7
3273 44 41
532 21 28
7326 11 28
6337 27 38
383 45 52
5872 36 18
919 1 10
1713 56 34
1670 55 59
5173 37 34
2965 54 19
6918 34 40
3663 24 51
5887 10 10
1266 41 56
7798 57 24
3028 20 26
2371 34 22
3509 48 10
8109 34 39
6115 11 25
5698 29 59
4223 16 16
6938 16 26
6105 54 7
1817 16 56
4341 56 17
4335 47 43
1922 57 31
4252 14 57
7623 57 8
7116 0 38
3263 35 46
3391 53 54
5645 22 48
2216 47 56
7169 29 53
5038 36 32
5729 50 29
2720 14 35
1186 17 25
4090 37 25
1968 49 52
6675 24 45
7713 10 8
6350 2 55
2190 51 16
6455 57 45
5132 38 35
1729 51 50
4357 1 59
2746 11 29
2595 52 18
8127 19 34
1704 48 44
5816 50 47
5896 41 38
6284 24 28
3125 32 58
6533 2 49
4375 7 42
4274 29 46
5155 16 38
2089 47 57
6660 55 37
8128 20 20
519 24 1
7386 44 17
998 50 50
3468 31 52
1134 54 59
3372 8 20
6082 0 28
3040 1 15
921 37 2
7439 50 22
4367 49 38
2088 19 23
7057 9 13
8023 6 36
6715 36 30
7490 48 38
4902 47 30
1546 15 24
5549 33 53
2232 20 35
5602 19 25
5173 11 36
7228 20 46
6701 20 52
1933 11 20
5491 54 8
5265 56 55
6412 27 3
2828 4 36
1173 44 48
1385 39 59
3982 12 2
8158 0 22
6720 1 42
3136 30 46
6732 29 40
4497 50 36
2512 42 55
3819 50 0
1147 52 36
1935 29 15
2358 23 19
4504 53 11
7239 10 4
2201 10 34
4299 31 55
4639 0 38
8124 16 20
8107 36 11
1947 31 3
68 59 24
8071 25 39
6555 46 32
2746 29 34
3347 46 37
2097 50 8
4489 25 0
7595 29 16
1443 37 44
5246 28 16
3793 4 7
6661 40 32
1448 35 18
4505 33 39
6167 36 26
1380 14 8
5068 31 33
5344 34 3
4721 41 32
7017 8 0
5189 21 57
1172 59 29
5517 7 4
6343 48 29
2699 56 6
4977 40 12
1093 25 43
3878 9 9
5073 2 50
4593 40 50
4386 25 12
4519 18 3
4872 35 10
3808 10 51
4073 17 47
823 58 19
4347 39 44
2750 54 54
3627 55 48
230 29 20
5996 55 38
144 18 56
5719 2 23
7786 50 25
2657 7 43
4692 23 41
7079 42 13
6696 45 59
694 48 54
1986 34 23
1207 3 10
3545 43 28
1981 19 30
2032 5 12
1849 34 12
4132 42 35
5666 9 9
7543 21 54
5450 19 35
4460 6 9
976 13 12
7574 58 48
4199 31 7
3913 19 4
2334 32 30
3534 29 12
145 59 21
4706 42 35
3585 24 54
408 52 0
3597 36 5
2766 31 3
6250 46 26
3385 31 37
1957 21 10
4623 31 31
7883 0 30
2432 39 12
3159 12 36
2566 12 20
2638 21 49
4584 35 20
3755 29 58
2134 30 21
1751 35 43
4457 2 6
6192 41 7
4430 34 46
6714 1 50
2110 15 2
3271 22 23
2980 34 51
620 41 20
390 7 51
6203 11 18
4010 16 21
5537 53 2
2736 51 28
314 2 22
1856 40 37
7770 39 51
5269 19 25
5312 11 7
5957 1 14
2396 13 17
4778 7 34
1343 0 19
8166 52 2
3102 30 4
5696 50 37
2130 4 8
3233 42 28
5399 2 39
4190 43 33
1740 59 46
7994 42 53
2832 37 46
639 27 38
5845 38 1
590 18 51
3367 20 48
1063 22 30
4851 41 24
7159 59 8
184 23 7
6514 13 41
5583 21 11
2929 56 30
1288 18 8
973 44 19
3840 47 39
1276 58 53
6742 30 34
975 33 25
6315 9 49
582 23 54
4940 38 16
4347 24 4
6969 56 22
7718 29 6
4097 37 45
6428 42 36
1562 0 58
3088 51 31
7006 34 32
6863 25 55
2461 49 25
4825 16 49
6402 13 37
4844 11 58
743 28 36
5656 17 10
4264 51 10
1418 59 54
4277 25 28
4833 32 45
1408 42 34
7778 7 42
2295 29 56
2633 14 7
1571 5 28
2951 33 45
8049 46 28
7224 48 19
1450 22 37
5234 19 9
2776 56 51
7206 6 51
6489 49 20
7593 10 26
1852 22 31
1556 9 5
4941 7 43
5377 59 31
5953 45 53
5482 51 5
2635 51 1
8067 10 59
2026 11 40
7298 0 43
4153 56 5
1524 21 14
5069 22 13
2668 52 4
3932 33 49
4945 51 41
2350 18 24
5747 29 26
6530 31 29
6995 38 29
1582 19 26
55 15 47
5365 17 9
987 1 53
2335 9 26
2669 11 17
7222 9 36
2386 53 5
3561 35 29
850 50 7
1848 48 18
214 35 33
5697 37 50
6854 44 44
872 55 53
1894 48 4
7212 14 6
3076 5 59
5745 14 26
862 52 17
3917 52 57
2679 10 33
6865 15 10
5159 14 46
231 6 41
4205 24 22
5641 52 36
6891 56 41
5510 58 47
8029 28 40
5058 58 32
6371 45 35
3832 58 42
2806 54 56
4280 41 2
2398 14 19
8020 52 11
3792 27 0
294 2 58
1085 55 18
7017 57 16
3554 56 54
7293 21 44
7547 47 38
2980 8 20
2654 54 34
273 10 18
3049 54 46
5865 12 40
6275 26 27
5141 3 24
6382 13 12
4484 58 33
6312 18 13
643 34 13
4091 44 7
4477 14 17
7444 47 3
3498 20 16
6342 43 34
7621 24 37
4201 22 51
2453 6 41
6211 35 59
1896 42 33
1981 1 18
672 54 24
5989 58 11
5340 48 23
7212 18 58
4498 7 22
4216 20 37
1727 46 35
4324 37 2
3172 41 36
1249 50 37
1211 14 24
3331 39 14
2466 7 3
4481 52 13
7459 2 21
158 42 33
5343 5 19
2922 10 48
7401 6 21
3037 35 11
2115 15 17
919 18 56
6893 25 4
7152 54 48
8038 14 50
787 48 25
5984 51 22
1508 29 32
1760 2 30
446 12 6
7737 51 13
7923 54 31
6991 3 48
2091 16 35
435 42 41
6522 21 29
8183 25 12
7145 49 41
7734 2 44
4928 28 56
8170 5 47
2287 52 33
6995 36 36
183 23 52
2718 59 26
5675 17 47
1020 52 5
2288 49 54
4210 11 56
5994 4 24
2486 54 22
3993 6 14
3242 33 50
7126 48 6
6415 39 5
953 10 14
7913 11 58
510 15 47
4828 1 51
6245 23 55
5205 33 49
1255 30 47
2318 52 12
7192 43 1
1586 26 40
2319 43 50
7721 32 53
1399 26 1
6883 15 2
7330 52 18
7669 45 51
7878 1 14
2054 23 58
5382 27 33
1663 38 59
1807 45 35
3298 7 59
7155 18 26
7476 9 33
279 51 17
7941 20 54
180 31 55
5566 29 10
2765 23 30
7094 19 8
394 54 45
1 4 44
5636 8 3
1426 12 12
391 11 4
584 20 16
7211 13 47
5142 19 8
4889 8 32
5451 31 51
223 53 37
7908 50 42
3461 46 50
4664 9 2
2016 48 6
2848 45 26
6637 36 39
4876 14 51
7813 55 51
4445 14 22
4628 33 15
1977 38 5
7983 19 52
5225 3 53
1180 51 41
4318 44 18
6196 45 46
6996 33 53
4091 30 48
246 59 3
2557 19 28
3224 9 58
2250 48 17
5270 10 12
5519 34 4
3388 56 48
7655 52 25
953 12 58
4810 23 29
7731 26 20
6974 51 32
2762 23 41
3005 53 21
2970 15 23
7323 22 57
1695 11 45
5319 2 38
256 47 42
7766 18 6
2895 37 32
6472 51 15
6740 33 38
5677 6 24
3074 57 39
4158 0 54
1915 59 57
665 46 59
6603 50 38
2149 44 48
7779 8 25
7355 44 8
3434 52 42
7433 41 40
5217 43 37
2056 9 29
3470 25 28
4655 26 6
5074 49 56
5681 2 41
3093 22 41
5043 5 25
2119 4 9
5277 41 50
1138 34 25
863 58 27
3585 17 44
2805 24 2
3844 31 51
6956 8 53
3525 33 7
4638 24 13
383 16 9
5692 49 50
1666 55 16
7764 39 6
3567 44 15
7375 17 40
3469 49 3
6644 18 11
2665 19 36
7505 2 1
3942 1 17
3603 10 6
5729 8 54
7345 16 33
2315 51 17
2303 2 26
3771 15 16
3602 11 26
7477 1 45
2105 50 47
722 44 41
5447 47 51
5174 32 51
1040 33 8
2101 40 51
3750 3 54
600 50 9
4688 48 21
6586 41 14
1628 19 56
2643 41 40
1824 29 27
4863 7 59
5235 47 24
2511 52 4
258 6 0
5852 38 50
6378 27 31
287 33 12
6629 33 23
141 5 5
1149 17 26
5064 21 33
1231 16 12
5187 11 56
2863 57 54
4755 38 32
6442 12 51
3333 15 25
2905 16 50
7265 21 47
750 58 5
5192 54 18
1189 41 26
6165 52 29
5837 7 26
3955 15 56
1119 5 8
2019 18 15
5048 43 31
3642 16 44
446 54 34
5475 50 28
7209 19 1
2691 52 53
2624 21 53
7266 44 0
6087 32 57
5463 11 15
5683 7 50
5182 45 7
4103 19 1
3593 42 52
526 31 3
4323 38 56
3789 14 17
1786 17 54
3070 8 26
5891 59 29
5390 6 28
4472 29 13
2211 36 25
7549 17 7
1101 19 31
440 15 9
3540 4 24
8046 38 33
1528 12 33
1490 43 32
1759 21 31
7383 49 0
5620 25 36
5109 54 53
3133 59 5
6900 15 12
2717 12 8
1401 26 46
2026 26 50
2487 52 33
56 47 54
415 2 43
555 22 0
4579 16 46
7888 1 45
2817 17 53
1881 42 5
677 24 23
991 30 49
5893 18 41
4890 30 20
3372 13 14
5812 56 36
6228 7 44
3979 11 45
164 21 2
3417 34 37
894 56 1
641 55 31
4186 37 41
4827 59 3
4323 0 8
1865 36 56
3074 12 3
4866 27 15
2184 28 28
1926 21 54
6811 12 42
1856 25 30
5472 28 7
3761 3 58
4973 59 50
1329 8 26
1578 46 31
2105 17 50
2608 17 18
5904 27 32
5683 7 44
2621 47 1
5903 51 29
5038 29 33
4917 2 24
719 43 24
6450 21 11
3761 55 20
4823 35 37
1610 44 56
5730 31 3
1694 0 51
6527 0 34
8033 58 55
2846 55 57
3482 35 41
3614 41 54
6317 10 49
73 21 25
3450 51 1
1991 53 32
2506 23 24
6853 55 24
4120 56 15
6259 14 2
1861 4 37
446 10 10
3592 28 12
5214 57 34
7919 56 25
1228 59 11
7208 57 26
3904 39 21
5413 55 9
388 58 23
1938 59 19
2592 33 30
606 54 50
7935 4 39
4825 39 35
1078 59 26
2425 51 16
2368 59 55
7433 32 42
1079 12 40
2534 3 32
7090 15 57
1976 45 51
1702 28 55
6341 37 26
2961 12 25
1743 49 8
5195 53 8
3786 11 40
1636 38 45
5005 28 40
7561 30 55
1558 2 40
6974 16 1
4445 10 38
1892 31 50
541 18 32
7602 14 17
2402 4 28
6738 37 6
4615 50 27
6163 19 57
5782 45 0
4079 55 16
796 1 18
758 17 49
5045 58 0
7889 40 6
3466 38 10
7403 1 47
4393 8 29
5164 56 48
422 38 34
334 1 29
6602 17 22
993 12 39
2850 49 30
5726 50 10
6624 16 41
1139 3 34
7290 49 42
5508 53 30
3352 3 9
2382 57 2
1380 0 12
4790 21 24
6314 31 5
6492 26 47
4734 26 55
3443 37 59
1165 36 40
2516 4 33
5466 12 29
7607 47 26
4826 43 26
6110 53 47
4026 43 11
3619 55 29
4586 18 47
2201 21 25
3868 59 53
5788 11 57
4934 45 1
1727 37 40
4693 23 15
4052 21 9
795 35 52
5966 46 40
715 44 58
8051 37 11
4536 22 2
5653 46 13
526 36 59
699 47 28
364 17 43
899 13 4
7096 40 31
693 19 17
4565 10 53
7063 57 30
3438 1 52
3049 6 31
218 52 59
413 32 47
3049 52 4
4760 27 9
3464 4 41
3187 33 52
7548 34 3
4749 25 0
5184 35 2
4528 40 0
379 59 53
5863 0 25
6322 30 9
6450 42 36
2107 51 40
2280 30 5
4745 19 31
2024 0 56
2168 12 24
1522 9 4
5739 36 55
7152 11 56
6461 17 26
4030 27 8
758 30 51
3743 23 22
5484 8 41
2356 48 41
1420 28 54
6116 11 55
3109 46 31
808 6 35
7820 43 52
2618 29 12
6347 43 42
6086 38 5
5024 31 5
2517 47 53
3315 59 22
4409 28 25
2136 1 3
5067 29 9
2682 46 44
1303 28 13
7379 3 48
6633 38 27
1347 34 58
4456 4 37
1602 7 36
3144 4 4
2413 48 57
5148 3 19
2117 54 5
7973 37 25
2170 24 29
1850 53 7
2565 12 33
1607 37 29
1332 47 36
3161 19 32
5017 8 20
1819 0 24
2566 53 18
6887 22 47
1016 4 11
7685 26 56
212 16 1
6 55 38
1391 12 25
7684 57 36
6908 46 44
1201 25 44
3821 23 29
1067 18 51
2434 39 47
7109 28 13
5341 9 21
6670 31 17
7360 14 29
821 34 18
6581 19 4
2477 32 22
1849 53 37
6814 24 56
769 42 35
2268 3 55
4970 12 4
3247 23 27
6900 3 34
877 9 8
4723 42 27
7072 0 51
1550 53 36
7107 8 0
6055 13 42
7602 58 45
3050 48 50
802 59 13
866 28 16
4632 17 17
3400 17 0
4080 21 52
7871 39 37
2212 34 45
4552 18 51
943 36 41
6684 50 29
2542 1 20
3379 39 48
172 43 58
1933 55 7
7053 27 28
1625 43 59
3883 35 25
4256 19 43
3515 46 20
3928 43 10
2273 37 3
1798 37 34
1210 45 17
1388 10 5
7055 20 32
707 21 7
278 0 42
4684 17 54
3595 24 32
4615 57 15
2602 58 53
6549 20 22
940 23 59
6789 15 1
2922 15 21
1611 34 43
2534 45 43
7905 21 52
5891 40 9
5627 20 6
5607 2 4
180 39 25
918 51 40
7993 13 47
6954 39 54
4856 30 21
3323 21 6
6238 54 27
1475 13 7
740 4 19
7962 11 21
838 3 1
5743 9 44
7503 14 57
7507 13 29
4617 33 51
7734 28 12
752 58 58
4739 29 11
6907 1 8
3678 39 19
5848 22 15
3581 21 16
6009 53 31
3539 12 36
7284 17 9
2471 44 29
8020 16 27
7258 8 57
6078 7 50
1914 17 30
373 49 44
1636 22 5
6621 32 50
6936 31 54
1344 7 4
2893 26 48
6714 58 4
2661 21 12
402 55 19
677 29 29
3255 14 18
783 15 33
7196 24 57
5423 4 28
2969 20 27
4453 37 45
1225 15 36
2230 28 57
4014 23 44
5294 16 13
1555 23 19
6837 22 34
146 18 58
3875 57 54
5179 23 6
3150 0 35
260 18 50
4528 40 11
6829 14 34
5049 0 50
1102 7 5
3553 33 27
5848 31 37
6414 27 27
3997 50 50
8131 33 42
5327 1 0
2297 5 40
1704 58 47
3950 35 39
1520 25 47
5861 34 20
1372 2 51
3442 29 10
1109 50 1
5535 9 26
4789 56 19
98 42 24
1882 30 14
5965 53 49
1257 5 14
5696 15 40
1544 43 43
5331 49 4
4550 22 54
4379 37 55
7969 27 52
7388 17 26
7164 39 56
5934 41 49
555 22 47
321 50 54
593 22 37
7220 45 27
2040 11 41
5434 38 19
958 23 38
2130 27 55
3056 47 26
5440 21 7
5042 36 29
3381 5 11
6319 7 25
7036 43 3
783 24 14
5053 50 45
804 4 8
1018 2 28
5793 26 15
627 39 37
7871 33 13
4204 14 11
3516 41 10
7349 53 45
4652 25 1
8167 30 44
5888 54 48
5784 56 43
7052 45 1
472 0 40
169 15 5
6698 52 19
3997 32 0
851 37 46
4481 38 3
542 1 33
2662 53 27
3607 53 23
5506 22 0
3223 6 52
2200 19 0
7477 37 44
6053 59 16
4245 38 45
899 55 23
4990 6 16
5187 8 9
2294 51 55
5521 17 17
4277 45 15
7382 45 34
6322 50 3
5302 15 2
7838 25 33
4895 20 20
1127 19 26
4699 42 35
5117 25 26
8164 30 44
4509 28 21
2816 18 6
3254 0 56
4329 26 4
1848 0 21
4853 11 41
1441 46 52
348 30 27
4235 15 52
325 55 22
2317 52 50
5242 4 0
3108 42 0
3393 15 18
3957 51 18
854 0 30
3175 30 8
7720 18 38
3291 41 53
375 30 48
4493 56 32
3540 34 36
4896 19 10
6693 52 26
6039 21 9
2582 3 10
1216 26 32
3068 34 50
4647 1 31
2876 28 1
5921 2 49
1905 26 24
1838 42 43
780 59 27
3062 27 40
2340 13 43
3466 21 9
7882 29 36
7744 16 37
7287 49 58
6836 10 0
518 55 18
1766 9 0
5497 34 52
6912 8 19
1776 0 24
7327 54 37
2164 20 6
2200 36 23
2534 23 4
3540 4 14
1520 34 1
14 20 3
3918 49 37
3542 37 45
4925 13 38
2457 24 32
5546 36 53
877 17 29
1288 27 53
1464 35 49
7326 35 23
4395 45 35
2702 47 24
3027 42 1
241 47 6
4875 9 22
4011 7 50
5532 12 7
798 24 34
5287 40 1
1260 2 28
5619 26 13
3746 52 53
1138 40 35
4707 13 14
8037 24 23
2071 59 31
5357 28 35
3713 26 0
7863 9 32
4965 33 35
4729 12 1
7171 26 45
8016 4 25
2615 35 38
4085 4 54
6693 47 54
7792 20 22
67 1 48
1191 1 49
4436 2 14
743 23 26
2700 58 44
4817 18 48
1931 13 15
2473 15 11
3128 48 50
7906 44 10
5956 15 4
6268 39 5
5937 35 59
6223 58 22
4553 22 21
4673 23 31
7721 50 45
2020 40 0
3799 32 40
6937 10 24
407 10 31
4307 50 2
1924 11 29
6415 46 27
6126 31 49
35 8 13
4350 17 55
5303 41 35
6979 8 59
7879 25 1
7603 52 11
6219 24 53
4917 52 56
8135 20 42
230 10 13
288 13 13
4933 39 30
7904 51 11
3484 2 11
2991 46 36
6141 45 21
2504 16 37
6542 50 29
7806 45 41
4329 7 43
662 19 48
1480 36 28
6310 41 19
790 13 21
5101 36 59
1606 9 45
7095 46 1
1300 8 43
2529 34 28
815 27 36
2282 34 47
6967 46 16
2835 20 49
3382 6 2
7395 56 38
6371 22 40
7912 1 26
1853 17 34
1305 2 0
6209 21 28
413 24 54
589 15 40
3477 34 0
598 4 59
3628 55 55
7366 38 9
1570 6 10
5128 36 27
6 41 21
2203 14 35
7855 16 59
1241 5 6
225 2 40
2925 56 36
1940 44 23
2371 10 2
5824 9 0
3010 25 36
3421 16 9
1395 7 16
5938 18 24
2949 23 21
7587 0 23
6303 37 19
2479 6 3
3510 29 5
7576 2 14
6205 44 40
1249 38 56
2207 53 55
7095 43 13
8135 24 36
5916 11 28
3915 30 5
2730 17 11
5989 35 41
4674 48 35
357 1 11
6357 42 49
6297 25 42
2380 24 17
2461 39 33
7781 23 44
2181 22 6
4970 40 23
1706 1 51
2951 28 39
6338 9 32
6685 14 6
7415 15 32
1729 11 48
3759 12 28
68 49 43
6437 46 6
4591 48 46
5203 46 48
3590 25 8
7329 39 9
6241 57 23
1575 4 38
3731 45 41
3420 44 53
584 9 34
1139 18 12
809 25 52
2324 48 39
3480 10 4
760 3 36
2713 20 33
7504 52 29
5046 39 14
5911 23 51
4368 19 0
6 59 10
3198 44 27
2530 8 16
7901 12 18
5878 24 14
2798 37 26
5347 21 18
4556 27 58
2154 14 13
1901 54 33
3865 0 24
6291 18 8
5579 21 9
6931 2 13
5745 48 30
1159 2 7
7606 41 21
2084 49 48
4710 4 3
2520 9 57
4289 7 50
2965 6 0
7549 25 21
3982 0 16
3936 46 4
8170 37 59
3013 55 40
4162 24 22
279 42 26
5466 14 35
7707 11 34
7009 24 33
6570 46 58
727 8 59
5575 44 37
2416 42 6
2239 48 54
2199 14 18
6853 29 52
1971 39 7
5839 47 10
5937 28 35
366 18 21
2897 14 29
4076 25 6
1457 41 48
4391 48 36
4101 36 51
2671 45 12
4812 13 52
4851 8 31
7077 29 51
6264 24 2
1769 25 16
5767 9 41
5809 38 15
1873 5 3
5166 27 39
3465 50 17
5241 14 22
7769 37 22
2372 3 51
4252 3 15
3594 17 32
1126 52 41
2423 33 11
1710 2 9
1226 0 28
3169 41 18
6202 27 33
4104 4 2
2714 5 5
7970 49 9
3853 43 18
1454 45 10
4847 20 43
7299 11 37
5008 57 30
2076 22 3
1174 49 30
7115 45 35
174 48 32
3811 42 21
7908 51 56
6042 17 33
3980 25 45
7531 44 48
2185 56 45
1299 44 0
146 42 49
3969 6 26
4152 40 14
3068 11 56
4969 44 40
5257 34 57
5058 35 14
6795 18 58
3988 31 54
6053 6 30
7969 53 13
7746 2 11
1297 46 51
7719 54 54
2216 15 30
5024 24 5
1213 6 40
3824 17 50
3770 25 14
6061 3 20
4579 40 5
500 59 7
939 36 45
6070 27 31
3321 7 46
599 27 2
3948 37 8
964 53 26
7371 7 43
777 8 46
7057 32 27
1783 8 18
5306 48 54
5396 18 21
5119 27 21
1254 15 48
7248 59 17
3585 24 10
5251 39 10
8042 0 18
1629 41 50
2172 36 51
1034 23 31
7704 55 49
5325 58 9
4306 40 24
1479 25 23
6248 10 39
6055 13 10
4669 59 10
8151 24 52
4698 16 20
3001 18 35
4000 6 30
5573 16 21
2850 38 53
4622 49 18
6646 2 20
1693 25 33
5328 58 33
1942 41 57
6786 7 6
5259 16 16
2666 56 15
4405 26 23
7402 56 1
4719 51 43
3606 53 45
7646 34 10
5708 26 0
5833 29 33
1458 15 41
2948 14 49
3145 49 46
1560 54 4
3519 12 0
5136 23 43
7891 45 36
1648 20 3
654 36 29
1386 9 58
3804 39 6
4413 16 12
6214 1 1
5016 1 55
6392 24 59
5001 40 15
5464 40 52
6237 16 12
820 55 40
2733 33 49
5728 53 29
206 38 37
7810 13 30
6632 33 23
1075 50 39
6735 7 19
3754 7 51
3930 28 0
6719 52 55
1443 46 28
2129 38 14
2042 20 44
4131 14 57
3349 10 23
1256 2 5
1371 37 12
638 27 11
6950 9 32
